[gd_scene load_steps=8 format=3 uid="uid://uhlewhqud8p0"]

[ext_resource type="Script" path="res://scripts/ProjectileSpell.gd" id="1_u78tq"]
[ext_resource type="Texture2D" uid="uid://c4423lslu8b5a" path="res://assets/Firebolt_SpriteSheet.png" id="2_o4p48"]

[sub_resource type="RectangleShape2D" id="RectangleShape2D_km5h8"]
size = Vector2(27, 37.8032)

[sub_resource type="Animation" id="Animation_a03xj"]
length = 0.001
tracks/0/type = "value"
tracks/0/imported = false
tracks/0/enabled = true
tracks/0/path = NodePath("Sprite2D:frame")
tracks/0/interp = 1
tracks/0/loop_wrap = true
tracks/0/keys = {
"times": PackedFloat32Array(0),
"transitions": PackedFloat32Array(1),
"update": 1,
"values": [0]
}
tracks/1/type = "value"
tracks/1/imported = false
tracks/1/enabled = true
tracks/1/path = NodePath("CollisionShape2D:disabled")
tracks/1/interp = 1
tracks/1/loop_wrap = true
tracks/1/keys = {
"times": PackedFloat32Array(0),
"transitions": PackedFloat32Array(1),
"update": 1,
"values": [false]
}

[sub_resource type="Animation" id="Animation_nkgc4"]
resource_name = "fireball_default"
length = 0.23
loop_mode = 1
tracks/0/type = "value"
tracks/0/imported = false
tracks/0/enabled = true
tracks/0/path = NodePath("Sprite2D:frame")
tracks/0/interp = 1
tracks/0/loop_wrap = true
tracks/0/keys = {
"times": PackedFloat32Array(0, 0.07, 0.14, 0.21),
"transitions": PackedFloat32Array(1, 1, 1, 1),
"update": 1,
"values": [0, 1, 2, 3]
}

[sub_resource type="Animation" id="Animation_flyoc"]
resource_name = "fireball_finish"
length = 0.6
tracks/0/type = "value"
tracks/0/imported = false
tracks/0/enabled = true
tracks/0/path = NodePath("Sprite2D:frame")
tracks/0/interp = 1
tracks/0/loop_wrap = true
tracks/0/keys = {
"times": PackedFloat32Array(0, 0.1, 0.2, 0.3, 0.4, 0.5),
"transitions": PackedFloat32Array(1, 1, 1, 1, 1, 1),
"update": 1,
"values": [5, 6, 7, 8, 9, 10]
}
tracks/1/type = "value"
tracks/1/imported = false
tracks/1/enabled = true
tracks/1/path = NodePath("CollisionShape2D:disabled")
tracks/1/interp = 1
tracks/1/loop_wrap = true
tracks/1/keys = {
"times": PackedFloat32Array(0.3),
"transitions": PackedFloat32Array(1),
"update": 1,
"values": [true]
}

[sub_resource type="AnimationLibrary" id="AnimationLibrary_dl2yr"]
_data = {
"RESET": SubResource("Animation_a03xj"),
"fireball_default": SubResource("Animation_nkgc4"),
"fireball_finish": SubResource("Animation_flyoc")
}

[node name="FireballProjectile" type="Area2D" groups=["attack"]]
collision_layer = 2
collision_mask = 5
script = ExtResource("1_u78tq")

[node name="Sprite2D" type="Sprite2D" parent="."]
texture_filter = 1
rotation = -2.43124
texture = ExtResource("2_o4p48")
hframes = 11

[node name="CollisionShape2D" type="CollisionShape2D" parent="."]
position = Vector2(-3.26189, -8.69552)
rotation = -2.43124
shape = SubResource("RectangleShape2D_km5h8")

[node name="Timer" type="Timer" parent="."]
wait_time = 5.0
one_shot = true
autostart = true

[node name="AudioStreamPlayer2D" type="AudioStreamPlayer2D" parent="."]

[node name="AnimationPlayer" type="AnimationPlayer" parent="."]
libraries = {
"": SubResource("AnimationLibrary_dl2yr")
}

[connection signal="body_entered" from="." to="." method="_on_body_entered"]
[connection signal="animation_finished" from="AnimationPlayer" to="." method="_on_animation_player_animation_finished"]
