[gd_scene load_steps=7 format=3 uid="uid://dikdiclc2fb7t"]

[ext_resource type="Script" path="res://scripts/SunBeamStrikerSpell.gd" id="1_tirh5"]
[ext_resource type="Texture2D" uid="uid://bhvgbf00qp0qi" path="res://assets/SunbeamStriker/fx_beamfire.png" id="2_o04kv"]

[sub_resource type="RectangleShape2D" id="RectangleShape2D_2u6s5"]
size = Vector2(27, 292.163)

[sub_resource type="Animation" id="Animation_a03xj"]
length = 0.001
tracks/0/type = "value"
tracks/0/imported = false
tracks/0/enabled = true
tracks/0/path = NodePath("Sprite2D:frame")
tracks/0/interp = 1
tracks/0/loop_wrap = true
tracks/0/keys = {
"times": PackedFloat32Array(0),
"transitions": PackedFloat32Array(1),
"update": 1,
"values": [0]
}

[sub_resource type="Animation" id="Animation_vvpw2"]
resource_name = "beam_animation"

[sub_resource type="AnimationLibrary" id="AnimationLibrary_dl2yr"]
_data = {
"RESET": SubResource("Animation_a03xj"),
"beam_animation": SubResource("Animation_vvpw2")
}

[node name="SunBeamStrikerSpell" type="Area2D" groups=["attack"]]
collision_layer = 2
collision_mask = 4
script = ExtResource("1_tirh5")

[node name="Sprite2D" type="Sprite2D" parent="."]
modulate = Color(0.0745098, 1, 1, 1)
texture_filter = 1
position = Vector2(2, 0)
rotation = -6.28319
texture = ExtResource("2_o04kv")
offset = Vector2(-4.88013e-07, -149.5)
region_enabled = true
region_rect = Rect2(892, 70, 48, 299)

[node name="CollisionShape2D" type="CollisionShape2D" parent="."]
position = Vector2(2, -160)
shape = SubResource("RectangleShape2D_2u6s5")

[node name="Timer" type="Timer" parent="."]
wait_time = 5.0
one_shot = true
autostart = true

[node name="AudioStreamPlayer2D" type="AudioStreamPlayer2D" parent="."]
position = Vector2(2, 144)

[node name="AnimationPlayer" type="AnimationPlayer" parent="."]
libraries = {
"": SubResource("AnimationLibrary_dl2yr")
}

[connection signal="timeout" from="Timer" to="." method="_on_timer_timeout"]
[connection signal="animation_finished" from="AnimationPlayer" to="." method="_on_animation_player_animation_finished"]
