[gd_scene load_steps=11 format=3 uid="uid://v2ludxx4h0iv"]

[ext_resource type="Texture2D" uid="uid://beqcijl4w0gtw" path="res://assets/Tiles/Tileset.png" id="1_tlgdm"]
[ext_resource type="Texture2D" uid="uid://r2phkg81h510" path="res://assets/Tiles/Decorations.png" id="2_kwnu4"]
[ext_resource type="Script" path="res://scripts/WorldTiles/Tile_1.gd" id="3_tohrw"]
[ext_resource type="PackedScene" uid="uid://dx4ry78n381gc" path="res://Prefabs/WorldTiles/tree_prop_1.tscn" id="4_qbyxt"]

[sub_resource type="TileMapPattern" id="TileMapPattern_anict"]
tile_data = PackedInt32Array(65536, 1, 10, 131072, 1, 11, 65537, 65537, 10, 131073, 65537, 11, 196609, 65537, 12, 262145, 65537, 13, 327681, 65537, 14, 2, 131073, 9, 65538, 131073, 10, 131074, 131073, 11, 196610, 131073, 12, 262146, 131073, 13, 327682, 131073, 14, 3, 196609, 9, 65539, 196609, 10, 131075, 196609, 11, 196611, 196609, 12, 262147, 196609, 13, 327683, 196609, 14, 4, 262145, 9, 65540, 262145, 10, 131076, 262145, 11, 196612, 262145, 12, 327684, 262145, 14)

[sub_resource type="TileMapPattern" id="TileMapPattern_xpo75"]
tile_data = PackedInt32Array(2490368, 524289, 7, 2424833, 589825, 6, 2490369, 589825, 7, 720898, 589825, 6, 786434, 589825, 7, 1769474, 65537, 10, 1835010, 65537, 11, 1900546, 65537, 12, 1966082, 65537, 13, 2031618, 65537, 14, 65539, 65537, 10, 131075, 65537, 11, 196611, 65537, 12, 262147, 65537, 13, 327683, 65537, 14, 1703939, 131073, 9, 1769475, 131073, 10, 1835011, 131073, 11, 1900547, 131073, 12, 1966083, 131073, 13, 2031619, 131073, 14, 4, 131073, 9, 65540, 131073, 10, 131076, 131073, 11, 196612, 131073, 12, 262148, 131073, 13, 327684, 131073, 14, 1703940, 196609, 9, 1769476, 196609, 10, 1835012, 196609, 11, 1900548, 196609, 12, 1966084, 196609, 13, 2031620, 196609, 14, 5, 196609, 9, 65541, 196609, 10, 131077, 196609, 11, 196613, 196609, 12, 262149, 196609, 13, 327685, 196609, 14, 1703941, 262145, 9, 1769477, 262145, 10, 1835013, 262145, 11, 1900549, 262145, 12, 2031621, 262145, 14, 6, 262145, 9, 65542, 262145, 10, 131078, 262145, 11, 196614, 262145, 12, 327686, 262145, 14, 1703942, 524289, 7, 1638407, 589825, 6, 1703943, 589825, 7, 2686985, 524289, 7, 983050, 524289, 7, 2621450, 589825, 6, 2686986, 589825, 7, 917515, 589825, 6, 983051, 589825, 7, 2162699, 1, 10, 2228235, 1, 11, 458764, 1, 10, 524300, 1, 11, 2162700, 65537, 10, 2228236, 65537, 11, 2293772, 65537, 12, 2359308, 65537, 13, 2424844, 65537, 14, 2818060, 65537, 10, 2883596, 65537, 11, 2949132, 65537, 12, 3014668, 65537, 13, 3080204, 65537, 14, 458765, 65537, 10, 524301, 65537, 11, 589837, 65537, 12, 655373, 65537, 13, 720909, 65537, 14, 1114125, 65537, 10, 1179661, 65537, 11, 1245197, 65537, 12, 1310733, 65537, 13, 1376269, 65537, 14, 2097165, 131073, 9, 2162701, 131073, 10, 2228237, 131073, 11, 2293773, 131073, 12, 2359309, 131073, 13, 2424845, 131073, 14, 2752525, 131073, 9, 2818061, 131073, 10, 2883597, 131073, 11, 2949133, 131073, 12, 3014669, 131073, 13, 3080205, 131073, 14, 393230, 131073, 9, 458766, 131073, 10, 524302, 131073, 11, 589838, 131073, 12, 655374, 131073, 13, 720910, 131073, 14, 1048590, 131073, 9, 1114126, 131073, 10, 1179662, 131073, 11, 1245198, 131073, 12, 1310734, 131073, 13, 1376270, 131073, 14, 2097166, 196609, 9, 2162702, 196609, 10, 2228238, 196609, 11, 2293774, 196609, 12, 2359310, 196609, 13, 2424846, 196609, 14, 2752526, 196609, 9, 2818062, 196609, 10, 2883598, 196609, 11, 2949134, 196609, 12, 3014670, 196609, 13, 3080206, 196609, 14, 393231, 196609, 9, 458767, 196609, 10, 524303, 196609, 11, 589839, 196609, 12, 655375, 196609, 13, 720911, 196609, 14, 1048591, 196609, 9, 1114127, 196609, 10, 1179663, 196609, 11, 1245199, 196609, 12, 1310735, 196609, 13, 1376271, 196609, 14, 2097167, 262145, 9, 2162703, 262145, 10, 2228239, 262145, 11, 2293775, 262145, 12, 2424847, 262145, 14, 2752527, 262145, 9, 2818063, 262145, 10, 2883599, 262145, 11, 2949135, 262145, 12, 3080207, 262145, 14, 3145743, 589825, 6, 393232, 262145, 9, 458768, 262145, 10, 524304, 262145, 11, 589840, 262145, 12, 720912, 262145, 14, 1048592, 262145, 9, 1114128, 262145, 10, 1179664, 262145, 11, 1245200, 262145, 12, 1376272, 262145, 14, 1441808, 589825, 6, 1703952, 1, 10, 1769488, 1, 11, 17, 1, 10, 65553, 1, 11, 1703953, 65537, 10, 1769489, 65537, 11, 1835025, 65537, 12, 1900561, 65537, 13, 1966097, 65537, 14, 18, 65537, 10, 65554, 65537, 11, 131090, 65537, 12, 196626, 65537, 13, 262162, 65537, 14, 1638418, 131073, 9, 1703954, 131073, 10, 1769490, 131073, 11, 1835026, 131073, 12, 1900562, 131073, 13, 1966098, 131073, 14, 19, 131073, 10, 65555, 131073, 11, 131091, 131073, 12, 196627, 131073, 13, 262163, 131073, 14, 1638419, 196609, 9, 1703955, 196609, 10, 1769491, 196609, 11, 1835027, 196609, 12, 1900563, 196609, 13, 1966099, 196609, 14, 20, 196609, 10, 65556, 196609, 11, 131092, 196609, 12, 196628, 196609, 13, 262164, 196609, 14, 1638420, 262145, 9, 1703956, 262145, 10, 1769492, 262145, 11, 1835028, 262145, 12, 1966100, 262145, 14, 21, 262145, 10, 65557, 262145, 11, 131093, 262145, 12, 262165, 262145, 14, 2097173, 524289, 7, 3145749, 524289, 7, 393238, 524289, 7, 1441814, 524289, 7, 1900566, 1, 10, 2031638, 589825, 6, 3145750, 589825, 7, 196631, 1, 10, 327703, 589825, 6, 1441815, 589825, 7, 917528, 589825, 6, 983064, 589825, 7, 262169, 65537, 10, 327705, 65537, 11, 393241, 65537, 12, 458777, 65537, 13, 524313, 65537, 14, 196634, 131073, 9, 262170, 131073, 10, 327706, 131073, 11, 393242, 131073, 12, 458778, 131073, 13, 524314, 131073, 14, 196635, 196609, 9, 262171, 196609, 10, 327707, 196609, 11, 393243, 196609, 12, 458779, 196609, 13, 524315, 196609, 14, 1966107, 589825, 6, 2031643, 589825, 7, 196636, 262145, 9, 262172, 262145, 10, 327708, 262145, 11, 393244, 262145, 12, 524316, 262145, 14, 1310748, 65537, 10, 1376284, 65537, 11, 1441820, 65537, 12, 1507356, 65537, 13, 1572892, 65537, 14, 1900572, 524289, 7, 1245213, 131073, 9, 1310749, 131073, 10, 1376285, 131073, 11, 1441821, 131073, 12, 1507357, 131073, 13, 1572893, 131073, 14, 1835037, 589825, 6, 1900573, 589825, 7, 1245214, 196609, 9, 1310750, 196609, 10, 1376286, 196609, 11, 1441822, 196609, 12, 1507358, 196609, 13, 1572894, 196609, 14, 1245215, 262145, 9, 1310751, 262145, 10, 1376287, 262145, 11, 1441823, 262145, 12, 1572895, 262145, 14, 2949151, 524289, 7, 1179680, 524289, 7, 2883616, 589825, 6, 2949152, 589825, 7, 1114145, 589825, 6, 1179681, 589825, 7, 655394, 1, 10, 720930, 1, 11, 655395, 65537, 10, 720931, 65537, 11, 786467, 65537, 12, 852003, 65537, 13, 917539, 65537, 14, 1310755, 65537, 10, 1376291, 65537, 11, 1441827, 65537, 12, 1507363, 65537, 13, 1572899, 65537, 14, 2228259, 524289, 7, 589860, 131073, 9, 655396, 131073, 10, 720932, 131073, 11, 786468, 131073, 12, 852004, 131073, 13, 917540, 131073, 14, 1245220, 131073, 9, 1310756, 131073, 10, 1376292, 131073, 11, 1441828, 131073, 12, 1507364, 131073, 13, 1572900, 131073, 14, 2162724, 589825, 6, 2228260, 589825, 7, 589861, 196609, 9, 655397, 196609, 10, 720933, 196609, 11, 786469, 196609, 12, 852005, 196609, 13, 917541, 196609, 14, 1245221, 196609, 9, 1310757, 196609, 10, 1376293, 196609, 11, 1441829, 196609, 12, 1507365, 196609, 13, 1572901, 196609, 14, 1703973, 1, 10, 1769509, 1, 11, 589862, 262145, 9, 655398, 262145, 10, 720934, 262145, 11, 786470, 262145, 12, 917542, 262145, 14, 1245222, 262145, 9, 1310758, 262145, 10, 1376294, 262145, 11, 1441830, 262145, 12, 1572902, 262145, 14, 1638438, 589825, 6, 1703974, 65537, 10, 1769510, 65537, 11, 1835046, 65537, 12, 1900582, 65537, 13, 1966118, 65537, 14, 2359334, 65537, 10, 2424870, 65537, 11, 2490406, 65537, 12, 2555942, 65537, 13, 2621478, 65537, 14, 196647, 1, 10, 262183, 1, 11, 1638439, 131073, 9, 1703975, 131073, 10, 1769511, 131073, 11, 1835047, 131073, 12, 1900583, 131073, 13, 1966119, 131073, 14, 2293799, 131073, 9, 2359335, 131073, 10, 2424871, 131073, 11, 2490407, 131073, 12, 2555943, 131073, 13, 2621479, 131073, 14, 196648, 65537, 10, 262184, 65537, 11, 327720, 65537, 12, 393256, 65537, 13, 458792, 65537, 14, 1638440, 196609, 9, 1703976, 196609, 10, 1769512, 196609, 11, 1835048, 196609, 12, 1900584, 196609, 13, 1966120, 196609, 14, 2293800, 196609, 9, 2359336, 196609, 10, 2424872, 196609, 11, 2490408, 196609, 12, 2555944, 196609, 13, 2621480, 196609, 14, 131113, 131073, 9, 196649, 131073, 10, 262185, 131073, 11, 327721, 131073, 12, 393257, 131073, 13, 458793, 131073, 14, 1638441, 262145, 9, 1703977, 262145, 10, 1769513, 262145, 11, 1835049, 262145, 12, 1966121, 262145, 14, 2293801, 262145, 9, 2359337, 262145, 10, 2424873, 262145, 11, 2490409, 262145, 12, 2621481, 262145, 14, 2687017, 589825, 6, 131114, 196609, 9, 196650, 196609, 10, 262186, 196609, 11, 327722, 196609, 12, 393258, 196609, 13, 458794, 196609, 14, 1245226, 1, 10, 1310762, 1, 11, 131115, 262145, 9, 196651, 262145, 10, 262187, 262145, 11, 327723, 262145, 12, 458795, 262145, 14, 1245227, 65537, 10, 1310763, 65537, 11, 1376299, 65537, 12, 1441835, 65537, 13, 1507371, 65537, 14, 589868, 524289, 7, 1179692, 131073, 9, 1245228, 131073, 10, 1310764, 131073, 11, 1376300, 131073, 12, 1441836, 131073, 13, 1507372, 131073, 14, 1638444, 524289, 7, 393261, 1, 10, 524333, 589825, 6, 1179693, 196609, 9, 1245229, 196609, 10, 1310765, 196609, 11, 1376301, 196609, 12, 1441837, 196609, 13, 1507373, 196609, 14, 1638445, 589825, 7, 1179694, 262145, 9, 1245230, 262145, 10, 1310766, 262145, 11, 1376302, 262145, 12, 1507374, 262145, 14, 1638447, 524289, 7, 2687023, 524289, 7, 1441840, 1, 10, 1572912, 589825, 6, 2687024, 589825, 7)

[sub_resource type="TileSetAtlasSource" id="TileSetAtlasSource_hltjg"]
texture = ExtResource("1_tlgdm")
0:0/0 = 0
0:0/0/terrain_set = 0
0:0/0/physics_layer_0/linear_velocity = Vector2(0, 0)
0:0/0/physics_layer_0/angular_velocity = 0.0
0:0/0/physics_layer_1/linear_velocity = Vector2(0, 0)
0:0/0/physics_layer_1/angular_velocity = 0.0
0:0/0/terrains_peering_bit/bottom_right_corner = 0
1:0/0 = 0
1:0/0/terrain_set = 0
1:0/0/physics_layer_0/linear_velocity = Vector2(0, 0)
1:0/0/physics_layer_0/angular_velocity = 0.0
1:0/0/physics_layer_1/linear_velocity = Vector2(0, 0)
1:0/0/physics_layer_1/angular_velocity = 0.0
1:0/0/terrains_peering_bit/bottom_right_corner = 0
1:0/0/terrains_peering_bit/bottom_side = 0
1:0/0/terrains_peering_bit/bottom_left_corner = 0
2:0/0 = 0
2:0/0/terrain_set = 0
2:0/0/physics_layer_0/linear_velocity = Vector2(0, 0)
2:0/0/physics_layer_0/angular_velocity = 0.0
2:0/0/physics_layer_1/linear_velocity = Vector2(0, 0)
2:0/0/physics_layer_1/angular_velocity = 0.0
2:0/0/terrains_peering_bit/bottom_left_corner = 0
3:0/0 = 0
3:0/0/terrain_set = 0
3:0/0/terrain = 0
3:0/0/physics_layer_0/linear_velocity = Vector2(0, 0)
3:0/0/physics_layer_0/angular_velocity = 0.0
3:0/0/physics_layer_1/linear_velocity = Vector2(0, 0)
3:0/0/physics_layer_1/angular_velocity = 0.0
3:0/0/terrains_peering_bit/right_side = 0
3:0/0/terrains_peering_bit/bottom_side = 0
3:0/0/terrains_peering_bit/bottom_left_corner = 0
3:0/0/terrains_peering_bit/left_side = 0
3:0/0/terrains_peering_bit/top_left_corner = 0
3:0/0/terrains_peering_bit/top_side = 0
3:0/0/terrains_peering_bit/top_right_corner = 0
4:0/0 = 0
4:0/0/terrain_set = 0
4:0/0/terrain = 0
4:0/0/physics_layer_0/linear_velocity = Vector2(0, 0)
4:0/0/physics_layer_0/angular_velocity = 0.0
4:0/0/physics_layer_1/linear_velocity = Vector2(0, 0)
4:0/0/physics_layer_1/angular_velocity = 0.0
4:0/0/terrains_peering_bit/right_side = 0
4:0/0/terrains_peering_bit/bottom_right_corner = 0
4:0/0/terrains_peering_bit/bottom_side = 0
4:0/0/terrains_peering_bit/left_side = 0
4:0/0/terrains_peering_bit/top_left_corner = 0
4:0/0/terrains_peering_bit/top_side = 0
4:0/0/terrains_peering_bit/top_right_corner = 0
5:0/0 = 0
5:0/0/physics_layer_0/linear_velocity = Vector2(0, 0)
5:0/0/physics_layer_0/angular_velocity = 0.0
5:0/0/physics_layer_1/linear_velocity = Vector2(0, 0)
5:0/0/physics_layer_1/angular_velocity = 0.0
6:0/0 = 0
6:0/0/physics_layer_0/linear_velocity = Vector2(0, 0)
6:0/0/physics_layer_0/angular_velocity = 0.0
6:0/0/physics_layer_1/linear_velocity = Vector2(0, 0)
6:0/0/physics_layer_1/angular_velocity = 0.0
7:0/0 = 0
7:0/0/physics_layer_0/linear_velocity = Vector2(0, 0)
7:0/0/physics_layer_0/angular_velocity = 0.0
7:0/0/physics_layer_1/linear_velocity = Vector2(0, 0)
7:0/0/physics_layer_1/angular_velocity = 0.0
0:1/0 = 0
0:1/0/terrain_set = 0
0:1/0/physics_layer_0/linear_velocity = Vector2(0, 0)
0:1/0/physics_layer_0/angular_velocity = 0.0
0:1/0/physics_layer_1/linear_velocity = Vector2(0, 0)
0:1/0/physics_layer_1/angular_velocity = 0.0
0:1/0/terrains_peering_bit/right_side = 0
0:1/0/terrains_peering_bit/bottom_right_corner = 0
0:1/0/terrains_peering_bit/top_right_corner = 0
1:1/0 = 0
1:1/0/terrain_set = 0
1:1/0/terrain = 0
1:1/0/physics_layer_0/linear_velocity = Vector2(0, 0)
1:1/0/physics_layer_0/angular_velocity = 0.0
1:1/0/physics_layer_1/linear_velocity = Vector2(0, 0)
1:1/0/physics_layer_1/angular_velocity = 0.0
1:1/0/terrains_peering_bit/right_side = 0
1:1/0/terrains_peering_bit/bottom_right_corner = 0
1:1/0/terrains_peering_bit/bottom_side = 0
1:1/0/terrains_peering_bit/bottom_left_corner = 0
1:1/0/terrains_peering_bit/left_side = 0
1:1/0/terrains_peering_bit/top_left_corner = 0
1:1/0/terrains_peering_bit/top_side = 0
1:1/0/terrains_peering_bit/top_right_corner = 0
2:1/0 = 0
2:1/0/terrain_set = 0
2:1/0/physics_layer_0/linear_velocity = Vector2(0, 0)
2:1/0/physics_layer_0/angular_velocity = 0.0
2:1/0/physics_layer_1/linear_velocity = Vector2(0, 0)
2:1/0/physics_layer_1/angular_velocity = 0.0
2:1/0/terrains_peering_bit/right_side = 0
2:1/0/terrains_peering_bit/bottom_left_corner = 0
2:1/0/terrains_peering_bit/left_side = 0
2:1/0/terrains_peering_bit/top_left_corner = 0
3:1/0 = 0
3:1/0/terrain_set = 0
3:1/0/terrain = 0
3:1/0/physics_layer_0/linear_velocity = Vector2(0, 0)
3:1/0/physics_layer_0/angular_velocity = 0.0
3:1/0/physics_layer_1/linear_velocity = Vector2(0, 0)
3:1/0/physics_layer_1/angular_velocity = 0.0
3:1/0/terrains_peering_bit/right_side = 0
3:1/0/terrains_peering_bit/bottom_side = 0
3:1/0/terrains_peering_bit/bottom_left_corner = 0
3:1/0/terrains_peering_bit/left_side = 0
3:1/0/terrains_peering_bit/top_left_corner = 0
3:1/0/terrains_peering_bit/top_side = 0
4:1/0 = 0
4:1/0/terrain_set = 0
4:1/0/terrain = 0
4:1/0/physics_layer_0/linear_velocity = Vector2(0, 0)
4:1/0/physics_layer_0/angular_velocity = 0.0
4:1/0/physics_layer_1/linear_velocity = Vector2(0, 0)
4:1/0/physics_layer_1/angular_velocity = 0.0
4:1/0/terrains_peering_bit/right_side = 0
4:1/0/terrains_peering_bit/bottom_right_corner = 0
4:1/0/terrains_peering_bit/bottom_side = 0
4:1/0/terrains_peering_bit/left_side = 0
4:1/0/terrains_peering_bit/top_side = 0
4:1/0/terrains_peering_bit/top_right_corner = 0
5:1/0 = 0
5:1/0/physics_layer_0/linear_velocity = Vector2(0, 0)
5:1/0/physics_layer_0/angular_velocity = 0.0
5:1/0/physics_layer_1/linear_velocity = Vector2(0, 0)
5:1/0/physics_layer_1/angular_velocity = 0.0
6:1/0 = 0
6:1/0/physics_layer_0/linear_velocity = Vector2(0, 0)
6:1/0/physics_layer_0/angular_velocity = 0.0
6:1/0/physics_layer_1/linear_velocity = Vector2(0, 0)
6:1/0/physics_layer_1/angular_velocity = 0.0
7:1/0 = 0
7:1/0/physics_layer_0/linear_velocity = Vector2(0, 0)
7:1/0/physics_layer_0/angular_velocity = 0.0
7:1/0/physics_layer_1/linear_velocity = Vector2(0, 0)
7:1/0/physics_layer_1/angular_velocity = 0.0
0:2/0 = 0
0:2/0/terrain_set = 0
0:2/0/physics_layer_0/linear_velocity = Vector2(0, 0)
0:2/0/physics_layer_0/angular_velocity = 0.0
0:2/0/physics_layer_1/linear_velocity = Vector2(0, 0)
0:2/0/physics_layer_1/angular_velocity = 0.0
0:2/0/terrains_peering_bit/top_right_corner = 0
1:2/0 = 0
1:2/0/terrain_set = 0
1:2/0/physics_layer_0/linear_velocity = Vector2(0, 0)
1:2/0/physics_layer_0/angular_velocity = 0.0
1:2/0/physics_layer_1/linear_velocity = Vector2(0, 0)
1:2/0/physics_layer_1/angular_velocity = 0.0
1:2/0/terrains_peering_bit/top_left_corner = 0
1:2/0/terrains_peering_bit/top_side = 0
1:2/0/terrains_peering_bit/top_right_corner = 0
2:2/0 = 0
2:2/0/terrain_set = 0
2:2/0/physics_layer_0/linear_velocity = Vector2(0, 0)
2:2/0/physics_layer_0/angular_velocity = 0.0
2:2/0/physics_layer_1/linear_velocity = Vector2(0, 0)
2:2/0/physics_layer_1/angular_velocity = 0.0
2:2/0/terrains_peering_bit/top_left_corner = 0
3:2/0 = 0
3:2/0/terrain_set = 0
3:2/0/terrain = 0
3:2/0/physics_layer_0/linear_velocity = Vector2(0, 0)
3:2/0/physics_layer_0/angular_velocity = 0.0
3:2/0/physics_layer_1/linear_velocity = Vector2(0, 0)
3:2/0/physics_layer_1/angular_velocity = 0.0
3:2/0/terrains_peering_bit/right_side = 0
3:2/0/terrains_peering_bit/bottom_right_corner = 0
3:2/0/terrains_peering_bit/bottom_side = 0
3:2/0/terrains_peering_bit/bottom_left_corner = 0
3:2/0/terrains_peering_bit/left_side = 0
3:2/0/terrains_peering_bit/top_left_corner = 0
3:2/0/terrains_peering_bit/top_side = 0
4:2/0 = 0
4:2/0/terrain_set = 0
4:2/0/terrain = 0
4:2/0/physics_layer_0/linear_velocity = Vector2(0, 0)
4:2/0/physics_layer_0/angular_velocity = 0.0
4:2/0/physics_layer_1/linear_velocity = Vector2(0, 0)
4:2/0/physics_layer_1/angular_velocity = 0.0
4:2/0/terrains_peering_bit/right_side = 0
4:2/0/terrains_peering_bit/bottom_right_corner = 0
4:2/0/terrains_peering_bit/bottom_side = 0
4:2/0/terrains_peering_bit/bottom_left_corner = 0
4:2/0/terrains_peering_bit/left_side = 0
4:2/0/terrains_peering_bit/top_side = 0
4:2/0/terrains_peering_bit/top_right_corner = 0
5:2/0 = 0
5:2/0/physics_layer_0/linear_velocity = Vector2(0, 0)
5:2/0/physics_layer_0/angular_velocity = 0.0
5:2/0/physics_layer_1/linear_velocity = Vector2(0, 0)
5:2/0/physics_layer_1/angular_velocity = 0.0
6:2/0 = 0
6:2/0/physics_layer_0/linear_velocity = Vector2(0, 0)
6:2/0/physics_layer_0/angular_velocity = 0.0
6:2/0/physics_layer_1/linear_velocity = Vector2(0, 0)
6:2/0/physics_layer_1/angular_velocity = 0.0
7:2/0 = 0
7:2/0/physics_layer_0/linear_velocity = Vector2(0, 0)
7:2/0/physics_layer_0/angular_velocity = 0.0
7:2/0/physics_layer_1/linear_velocity = Vector2(0, 0)
7:2/0/physics_layer_1/angular_velocity = 0.0
0:3/0 = 0
0:3/0/physics_layer_0/linear_velocity = Vector2(0, 0)
0:3/0/physics_layer_0/angular_velocity = 0.0
0:3/0/physics_layer_1/linear_velocity = Vector2(0, 0)
0:3/0/physics_layer_1/angular_velocity = 0.0
1:3/0 = 0
1:3/0/physics_layer_0/linear_velocity = Vector2(0, 0)
1:3/0/physics_layer_0/angular_velocity = 0.0
1:3/0/physics_layer_1/linear_velocity = Vector2(0, 0)
1:3/0/physics_layer_1/angular_velocity = 0.0
2:3/0 = 0
2:3/0/physics_layer_0/linear_velocity = Vector2(0, 0)
2:3/0/physics_layer_0/angular_velocity = 0.0
2:3/0/physics_layer_1/linear_velocity = Vector2(0, 0)
2:3/0/physics_layer_1/angular_velocity = 0.0
3:3/0 = 0
3:3/0/physics_layer_0/linear_velocity = Vector2(0, 0)
3:3/0/physics_layer_0/angular_velocity = 0.0
3:3/0/physics_layer_1/linear_velocity = Vector2(0, 0)
3:3/0/physics_layer_1/angular_velocity = 0.0
4:3/0 = 0
4:3/0/physics_layer_0/linear_velocity = Vector2(0, 0)
4:3/0/physics_layer_0/angular_velocity = 0.0
4:3/0/physics_layer_1/linear_velocity = Vector2(0, 0)
4:3/0/physics_layer_1/angular_velocity = 0.0
5:3/0 = 0
5:3/0/physics_layer_0/linear_velocity = Vector2(0, 0)
5:3/0/physics_layer_0/angular_velocity = 0.0
5:3/0/physics_layer_1/linear_velocity = Vector2(0, 0)
5:3/0/physics_layer_1/angular_velocity = 0.0
6:3/0 = 0
6:3/0/physics_layer_0/linear_velocity = Vector2(0, 0)
6:3/0/physics_layer_0/angular_velocity = 0.0
6:3/0/physics_layer_1/linear_velocity = Vector2(0, 0)
6:3/0/physics_layer_1/angular_velocity = 0.0
7:3/0 = 0
7:3/0/physics_layer_0/linear_velocity = Vector2(0, 0)
7:3/0/physics_layer_0/angular_velocity = 0.0
7:3/0/physics_layer_1/linear_velocity = Vector2(0, 0)
7:3/0/physics_layer_1/angular_velocity = 0.0
0:4/0 = 0
0:4/0/physics_layer_0/linear_velocity = Vector2(0, 0)
0:4/0/physics_layer_0/angular_velocity = 0.0
0:4/0/physics_layer_1/linear_velocity = Vector2(0, 0)
0:4/0/physics_layer_1/angular_velocity = 0.0
1:4/0 = 0
1:4/0/physics_layer_0/linear_velocity = Vector2(0, 0)
1:4/0/physics_layer_0/angular_velocity = 0.0
1:4/0/physics_layer_1/linear_velocity = Vector2(0, 0)
1:4/0/physics_layer_1/angular_velocity = 0.0
2:4/0 = 0
2:4/0/physics_layer_0/linear_velocity = Vector2(0, 0)
2:4/0/physics_layer_0/angular_velocity = 0.0
2:4/0/physics_layer_1/linear_velocity = Vector2(0, 0)
2:4/0/physics_layer_1/angular_velocity = 0.0
3:4/0 = 0
3:4/0/physics_layer_0/linear_velocity = Vector2(0, 0)
3:4/0/physics_layer_0/angular_velocity = 0.0
3:4/0/physics_layer_1/linear_velocity = Vector2(0, 0)
3:4/0/physics_layer_1/angular_velocity = 0.0
5:4/0 = 0
5:4/0/physics_layer_0/linear_velocity = Vector2(0, 0)
5:4/0/physics_layer_0/angular_velocity = 0.0
5:4/0/physics_layer_1/linear_velocity = Vector2(0, 0)
5:4/0/physics_layer_1/angular_velocity = 0.0
6:4/0 = 0
6:4/0/physics_layer_0/linear_velocity = Vector2(0, 0)
6:4/0/physics_layer_0/angular_velocity = 0.0
6:4/0/physics_layer_1/linear_velocity = Vector2(0, 0)
6:4/0/physics_layer_1/angular_velocity = 0.0
7:4/0 = 0
7:4/0/physics_layer_0/linear_velocity = Vector2(0, 0)
7:4/0/physics_layer_0/angular_velocity = 0.0
7:4/0/physics_layer_1/linear_velocity = Vector2(0, 0)
7:4/0/physics_layer_1/angular_velocity = 0.0
0:5/0 = 0
0:5/0/physics_layer_0/linear_velocity = Vector2(0, 0)
0:5/0/physics_layer_0/angular_velocity = 0.0
0:5/0/physics_layer_1/linear_velocity = Vector2(0, 0)
0:5/0/physics_layer_1/angular_velocity = 0.0
1:5/0 = 0
1:5/0/physics_layer_0/linear_velocity = Vector2(0, 0)
1:5/0/physics_layer_0/angular_velocity = 0.0
1:5/0/physics_layer_1/linear_velocity = Vector2(0, 0)
1:5/0/physics_layer_1/angular_velocity = 0.0
2:5/0 = 0
2:5/0/physics_layer_0/linear_velocity = Vector2(0, 0)
2:5/0/physics_layer_0/angular_velocity = 0.0
2:5/0/physics_layer_1/linear_velocity = Vector2(0, 0)
2:5/0/physics_layer_1/angular_velocity = 0.0
3:5/0 = 0
3:5/0/physics_layer_0/linear_velocity = Vector2(0, 0)
3:5/0/physics_layer_0/angular_velocity = 0.0
3:5/0/physics_layer_1/linear_velocity = Vector2(0, 0)
3:5/0/physics_layer_1/angular_velocity = 0.0
4:5/0 = 0
4:5/0/physics_layer_0/linear_velocity = Vector2(0, 0)
4:5/0/physics_layer_0/angular_velocity = 0.0
4:5/0/physics_layer_1/linear_velocity = Vector2(0, 0)
4:5/0/physics_layer_1/angular_velocity = 0.0
5:5/0 = 0
5:5/0/physics_layer_0/linear_velocity = Vector2(0, 0)
5:5/0/physics_layer_0/angular_velocity = 0.0
5:5/0/physics_layer_1/linear_velocity = Vector2(0, 0)
5:5/0/physics_layer_1/angular_velocity = 0.0
3:6/0 = 0
3:6/0/physics_layer_0/linear_velocity = Vector2(0, 0)
3:6/0/physics_layer_0/angular_velocity = 0.0
3:6/0/physics_layer_1/linear_velocity = Vector2(0, 0)
3:6/0/physics_layer_1/angular_velocity = 0.0
4:6/0 = 0
4:6/0/physics_layer_0/linear_velocity = Vector2(0, 0)
4:6/0/physics_layer_0/angular_velocity = 0.0
4:6/0/physics_layer_1/linear_velocity = Vector2(0, 0)
4:6/0/physics_layer_1/angular_velocity = 0.0
5:6/0 = 0
5:6/0/physics_layer_0/linear_velocity = Vector2(0, 0)
5:6/0/physics_layer_0/angular_velocity = 0.0
5:6/0/physics_layer_1/linear_velocity = Vector2(0, 0)
5:6/0/physics_layer_1/angular_velocity = 0.0
6:6/0 = 0
6:6/0/physics_layer_0/linear_velocity = Vector2(0, 0)
6:6/0/physics_layer_0/angular_velocity = 0.0
6:6/0/physics_layer_1/linear_velocity = Vector2(0, 0)
6:6/0/physics_layer_1/angular_velocity = 0.0
7:6/0 = 0
7:6/0/physics_layer_0/linear_velocity = Vector2(0, 0)
7:6/0/physics_layer_0/angular_velocity = 0.0
7:6/0/physics_layer_1/linear_velocity = Vector2(0, 0)
7:6/0/physics_layer_1/angular_velocity = 0.0
3:7/0 = 0
3:7/0/physics_layer_0/linear_velocity = Vector2(0, 0)
3:7/0/physics_layer_0/angular_velocity = 0.0
3:7/0/physics_layer_1/linear_velocity = Vector2(0, 0)
3:7/0/physics_layer_1/angular_velocity = 0.0
5:7/0 = 0
5:7/0/physics_layer_0/linear_velocity = Vector2(0, 0)
5:7/0/physics_layer_0/angular_velocity = 0.0
5:7/0/physics_layer_1/linear_velocity = Vector2(0, 0)
5:7/0/physics_layer_1/angular_velocity = 0.0
6:7/0 = 0
6:7/0/physics_layer_0/linear_velocity = Vector2(0, 0)
6:7/0/physics_layer_0/angular_velocity = 0.0
6:7/0/physics_layer_1/linear_velocity = Vector2(0, 0)
6:7/0/physics_layer_1/angular_velocity = 0.0
7:7/0 = 0
7:7/0/physics_layer_0/linear_velocity = Vector2(0, 0)
7:7/0/physics_layer_0/angular_velocity = 0.0
7:7/0/physics_layer_1/linear_velocity = Vector2(0, 0)
7:7/0/physics_layer_1/angular_velocity = 0.0
3:8/0 = 0
3:8/0/physics_layer_0/linear_velocity = Vector2(0, 0)
3:8/0/physics_layer_0/angular_velocity = 0.0
3:8/0/physics_layer_1/linear_velocity = Vector2(0, 0)
3:8/0/physics_layer_1/angular_velocity = 0.0
4:8/0 = 0
4:8/0/physics_layer_0/linear_velocity = Vector2(0, 0)
4:8/0/physics_layer_0/angular_velocity = 0.0
4:8/0/physics_layer_1/linear_velocity = Vector2(0, 0)
4:8/0/physics_layer_1/angular_velocity = 0.0
5:8/0 = 0
5:8/0/physics_layer_0/linear_velocity = Vector2(0, 0)
5:8/0/physics_layer_0/angular_velocity = 0.0
5:8/0/physics_layer_1/linear_velocity = Vector2(0, 0)
5:8/0/physics_layer_1/angular_velocity = 0.0
0:9/0 = 0
0:9/0/physics_layer_0/linear_velocity = Vector2(0, 0)
0:9/0/physics_layer_0/angular_velocity = 0.0
0:9/0/physics_layer_1/linear_velocity = Vector2(0, 0)
0:9/0/physics_layer_1/angular_velocity = 0.0
1:9/0 = 0
1:9/0/physics_layer_0/linear_velocity = Vector2(0, 0)
1:9/0/physics_layer_0/angular_velocity = 0.0
1:9/0/physics_layer_1/linear_velocity = Vector2(0, 0)
1:9/0/physics_layer_1/angular_velocity = 0.0
2:9/0 = 0
2:9/0/physics_layer_0/linear_velocity = Vector2(0, 0)
2:9/0/physics_layer_0/angular_velocity = 0.0
2:9/0/physics_layer_1/linear_velocity = Vector2(0, 0)
2:9/0/physics_layer_1/angular_velocity = 0.0
3:9/0 = 0
3:9/0/physics_layer_0/linear_velocity = Vector2(0, 0)
3:9/0/physics_layer_0/angular_velocity = 0.0
3:9/0/physics_layer_1/linear_velocity = Vector2(0, 0)
3:9/0/physics_layer_1/angular_velocity = 0.0
4:9/0 = 0
4:9/0/physics_layer_0/linear_velocity = Vector2(0, 0)
4:9/0/physics_layer_0/angular_velocity = 0.0
4:9/0/physics_layer_1/linear_velocity = Vector2(0, 0)
4:9/0/physics_layer_1/angular_velocity = 0.0
5:9/0 = 0
5:9/0/physics_layer_0/linear_velocity = Vector2(0, 0)
5:9/0/physics_layer_0/angular_velocity = 0.0
5:9/0/physics_layer_1/linear_velocity = Vector2(0, 0)
5:9/0/physics_layer_1/angular_velocity = 0.0
6:9/0 = 0
6:9/0/physics_layer_0/linear_velocity = Vector2(0, 0)
6:9/0/physics_layer_0/angular_velocity = 0.0
6:9/0/physics_layer_1/linear_velocity = Vector2(0, 0)
6:9/0/physics_layer_1/angular_velocity = 0.0
7:9/0 = 0
7:9/0/physics_layer_0/linear_velocity = Vector2(0, 0)
7:9/0/physics_layer_0/angular_velocity = 0.0
7:9/0/physics_layer_1/linear_velocity = Vector2(0, 0)
7:9/0/physics_layer_1/angular_velocity = 0.0
0:10/0 = 0
0:10/0/physics_layer_0/linear_velocity = Vector2(0, 0)
0:10/0/physics_layer_0/angular_velocity = 0.0
0:10/0/physics_layer_1/linear_velocity = Vector2(0, 0)
0:10/0/physics_layer_1/angular_velocity = 0.0
1:10/0 = 0
1:10/0/physics_layer_0/linear_velocity = Vector2(0, 0)
1:10/0/physics_layer_0/angular_velocity = 0.0
1:10/0/physics_layer_1/linear_velocity = Vector2(0, 0)
1:10/0/physics_layer_1/angular_velocity = 0.0
2:10/0 = 0
2:10/0/physics_layer_0/linear_velocity = Vector2(0, 0)
2:10/0/physics_layer_0/angular_velocity = 0.0
2:10/0/physics_layer_1/linear_velocity = Vector2(0, 0)
2:10/0/physics_layer_1/angular_velocity = 0.0
3:10/0 = 0
3:10/0/physics_layer_0/linear_velocity = Vector2(0, 0)
3:10/0/physics_layer_0/angular_velocity = 0.0
3:10/0/physics_layer_1/linear_velocity = Vector2(0, 0)
3:10/0/physics_layer_1/angular_velocity = 0.0
4:10/0 = 0
4:10/0/physics_layer_0/linear_velocity = Vector2(0, 0)
4:10/0/physics_layer_0/angular_velocity = 0.0
4:10/0/physics_layer_1/linear_velocity = Vector2(0, 0)
4:10/0/physics_layer_1/angular_velocity = 0.0
5:10/0 = 0
5:10/0/physics_layer_0/linear_velocity = Vector2(0, 0)
5:10/0/physics_layer_0/angular_velocity = 0.0
5:10/0/physics_layer_1/linear_velocity = Vector2(0, 0)
5:10/0/physics_layer_1/angular_velocity = 0.0
6:10/0 = 0
6:10/0/physics_layer_0/linear_velocity = Vector2(0, 0)
6:10/0/physics_layer_0/angular_velocity = 0.0
6:10/0/physics_layer_1/linear_velocity = Vector2(0, 0)
6:10/0/physics_layer_1/angular_velocity = 0.0
7:10/0 = 0
7:10/0/physics_layer_0/linear_velocity = Vector2(0, 0)
7:10/0/physics_layer_0/angular_velocity = 0.0
7:10/0/physics_layer_1/linear_velocity = Vector2(0, 0)
7:10/0/physics_layer_1/angular_velocity = 0.0
0:11/0 = 0
0:11/0/physics_layer_0/linear_velocity = Vector2(0, 0)
0:11/0/physics_layer_0/angular_velocity = 0.0
0:11/0/physics_layer_1/linear_velocity = Vector2(0, 0)
0:11/0/physics_layer_1/angular_velocity = 0.0
1:11/0 = 0
1:11/0/physics_layer_0/linear_velocity = Vector2(0, 0)
1:11/0/physics_layer_0/angular_velocity = 0.0
1:11/0/physics_layer_1/linear_velocity = Vector2(0, 0)
1:11/0/physics_layer_1/angular_velocity = 0.0
2:11/0 = 0
2:11/0/physics_layer_0/linear_velocity = Vector2(0, 0)
2:11/0/physics_layer_0/angular_velocity = 0.0
2:11/0/physics_layer_1/linear_velocity = Vector2(0, 0)
2:11/0/physics_layer_1/angular_velocity = 0.0
3:11/0 = 0
3:11/0/physics_layer_0/linear_velocity = Vector2(0, 0)
3:11/0/physics_layer_0/angular_velocity = 0.0
3:11/0/physics_layer_1/linear_velocity = Vector2(0, 0)
3:11/0/physics_layer_1/angular_velocity = 0.0
5:11/0 = 0
5:11/0/physics_layer_0/linear_velocity = Vector2(0, 0)
5:11/0/physics_layer_0/angular_velocity = 0.0
5:11/0/physics_layer_1/linear_velocity = Vector2(0, 0)
5:11/0/physics_layer_1/angular_velocity = 0.0
6:11/0 = 0
6:11/0/physics_layer_0/linear_velocity = Vector2(0, 0)
6:11/0/physics_layer_0/angular_velocity = 0.0
6:11/0/physics_layer_1/linear_velocity = Vector2(0, 0)
6:11/0/physics_layer_1/angular_velocity = 0.0
7:11/0 = 0
7:11/0/physics_layer_0/linear_velocity = Vector2(0, 0)
7:11/0/physics_layer_0/angular_velocity = 0.0
7:11/0/physics_layer_1/linear_velocity = Vector2(0, 0)
7:11/0/physics_layer_1/angular_velocity = 0.0
0:12/0 = 0
0:12/0/physics_layer_0/linear_velocity = Vector2(0, 0)
0:12/0/physics_layer_0/angular_velocity = 0.0
0:12/0/physics_layer_1/linear_velocity = Vector2(0, 0)
0:12/0/physics_layer_1/angular_velocity = 0.0
1:12/0 = 0
1:12/0/physics_layer_0/linear_velocity = Vector2(0, 0)
1:12/0/physics_layer_0/angular_velocity = 0.0
1:12/0/physics_layer_1/linear_velocity = Vector2(0, 0)
1:12/0/physics_layer_1/angular_velocity = 0.0
2:12/0 = 0
2:12/0/physics_layer_0/linear_velocity = Vector2(0, 0)
2:12/0/physics_layer_0/angular_velocity = 0.0
2:12/0/physics_layer_1/linear_velocity = Vector2(0, 0)
2:12/0/physics_layer_1/angular_velocity = 0.0
3:12/0 = 0
3:12/0/physics_layer_0/linear_velocity = Vector2(0, 0)
3:12/0/physics_layer_0/angular_velocity = 0.0
3:12/0/physics_layer_1/linear_velocity = Vector2(0, 0)
3:12/0/physics_layer_1/angular_velocity = 0.0
4:12/0 = 0
4:12/0/physics_layer_0/linear_velocity = Vector2(0, 0)
4:12/0/physics_layer_0/angular_velocity = 0.0
4:12/0/physics_layer_1/linear_velocity = Vector2(0, 0)
4:12/0/physics_layer_1/angular_velocity = 0.0
5:12/0 = 0
5:12/0/physics_layer_0/linear_velocity = Vector2(0, 0)
5:12/0/physics_layer_0/angular_velocity = 0.0
5:12/0/physics_layer_1/linear_velocity = Vector2(0, 0)
5:12/0/physics_layer_1/angular_velocity = 0.0
6:12/0 = 0
6:12/0/physics_layer_0/linear_velocity = Vector2(0, 0)
6:12/0/physics_layer_0/angular_velocity = 0.0
6:12/0/physics_layer_1/linear_velocity = Vector2(0, 0)
6:12/0/physics_layer_1/angular_velocity = 0.0
7:12/0 = 0
7:12/0/physics_layer_0/linear_velocity = Vector2(0, 0)
7:12/0/physics_layer_0/angular_velocity = 0.0
7:12/0/physics_layer_1/linear_velocity = Vector2(0, 0)
7:12/0/physics_layer_1/angular_velocity = 0.0
6:13/0 = 0
6:13/0/physics_layer_0/linear_velocity = Vector2(0, 0)
6:13/0/physics_layer_0/angular_velocity = 0.0
6:13/0/physics_layer_1/linear_velocity = Vector2(0, 0)
6:13/0/physics_layer_1/angular_velocity = 0.0
7:13/0 = 0
7:13/0/physics_layer_0/linear_velocity = Vector2(0, 0)
7:13/0/physics_layer_0/angular_velocity = 0.0
7:13/0/physics_layer_1/linear_velocity = Vector2(0, 0)
7:13/0/physics_layer_1/angular_velocity = 0.0
6:14/0 = 0
6:14/0/physics_layer_0/linear_velocity = Vector2(0, 0)
6:14/0/physics_layer_0/angular_velocity = 0.0
6:14/0/physics_layer_1/linear_velocity = Vector2(0, 0)
6:14/0/physics_layer_1/angular_velocity = 0.0
7:14/0 = 0
7:14/0/physics_layer_0/linear_velocity = Vector2(0, 0)
7:14/0/physics_layer_0/angular_velocity = 0.0
7:14/0/physics_layer_1/linear_velocity = Vector2(0, 0)
7:14/0/physics_layer_1/angular_velocity = 0.0

[sub_resource type="TileSetAtlasSource" id="TileSetAtlasSource_a7kxq"]
texture = ExtResource("2_kwnu4")
0:0/0 = 0
0:0/0/physics_layer_0/linear_velocity = Vector2(0, 0)
0:0/0/physics_layer_0/angular_velocity = 0.0
0:0/0/physics_layer_1/linear_velocity = Vector2(0, 0)
0:0/0/physics_layer_1/angular_velocity = 0.0
1:0/0 = 0
1:0/0/physics_layer_0/linear_velocity = Vector2(0, 0)
1:0/0/physics_layer_0/angular_velocity = 0.0
1:0/0/physics_layer_1/linear_velocity = Vector2(0, 0)
1:0/0/physics_layer_1/angular_velocity = 0.0
2:0/0 = 0
2:0/0/physics_layer_0/linear_velocity = Vector2(0, 0)
2:0/0/physics_layer_0/angular_velocity = 0.0
2:0/0/physics_layer_1/linear_velocity = Vector2(0, 0)
2:0/0/physics_layer_1/angular_velocity = 0.0
5:0/0 = 0
5:0/0/physics_layer_0/linear_velocity = Vector2(0, 0)
5:0/0/physics_layer_0/angular_velocity = 0.0
5:0/0/physics_layer_1/linear_velocity = Vector2(0, 0)
5:0/0/physics_layer_1/angular_velocity = 0.0
6:0/0 = 0
6:0/0/physics_layer_0/linear_velocity = Vector2(0, 0)
6:0/0/physics_layer_0/angular_velocity = 0.0
6:0/0/physics_layer_1/linear_velocity = Vector2(0, 0)
6:0/0/physics_layer_1/angular_velocity = 0.0
7:0/0 = 0
7:0/0/physics_layer_0/linear_velocity = Vector2(0, 0)
7:0/0/physics_layer_0/angular_velocity = 0.0
7:0/0/physics_layer_1/linear_velocity = Vector2(0, 0)
7:0/0/physics_layer_1/angular_velocity = 0.0
8:0/0 = 0
8:0/0/physics_layer_0/linear_velocity = Vector2(0, 0)
8:0/0/physics_layer_0/angular_velocity = 0.0
8:0/0/physics_layer_1/linear_velocity = Vector2(0, 0)
8:0/0/physics_layer_1/angular_velocity = 0.0
9:0/0 = 0
9:0/0/physics_layer_0/linear_velocity = Vector2(0, 0)
9:0/0/physics_layer_0/angular_velocity = 0.0
9:0/0/physics_layer_1/linear_velocity = Vector2(0, 0)
9:0/0/physics_layer_1/angular_velocity = 0.0
10:0/0 = 0
10:0/0/physics_layer_0/linear_velocity = Vector2(0, 0)
10:0/0/physics_layer_0/angular_velocity = 0.0
10:0/0/physics_layer_1/linear_velocity = Vector2(0, 0)
10:0/0/physics_layer_1/angular_velocity = 0.0
11:0/0 = 0
11:0/0/physics_layer_0/linear_velocity = Vector2(0, 0)
11:0/0/physics_layer_0/angular_velocity = 0.0
11:0/0/physics_layer_1/linear_velocity = Vector2(0, 0)
11:0/0/physics_layer_1/angular_velocity = 0.0
12:0/0 = 0
12:0/0/physics_layer_0/linear_velocity = Vector2(0, 0)
12:0/0/physics_layer_0/angular_velocity = 0.0
12:0/0/physics_layer_1/linear_velocity = Vector2(0, 0)
12:0/0/physics_layer_1/angular_velocity = 0.0
13:0/0 = 0
13:0/0/physics_layer_0/linear_velocity = Vector2(0, 0)
13:0/0/physics_layer_0/angular_velocity = 0.0
13:0/0/physics_layer_1/linear_velocity = Vector2(0, 0)
13:0/0/physics_layer_1/angular_velocity = 0.0
14:0/0 = 0
14:0/0/physics_layer_0/linear_velocity = Vector2(0, 0)
14:0/0/physics_layer_0/angular_velocity = 0.0
14:0/0/physics_layer_1/linear_velocity = Vector2(0, 0)
14:0/0/physics_layer_1/angular_velocity = 0.0
15:0/0 = 0
15:0/0/physics_layer_0/linear_velocity = Vector2(0, 0)
15:0/0/physics_layer_0/angular_velocity = 0.0
15:0/0/physics_layer_1/linear_velocity = Vector2(0, 0)
15:0/0/physics_layer_1/angular_velocity = 0.0
0:1/0 = 0
0:1/0/physics_layer_0/linear_velocity = Vector2(0, 0)
0:1/0/physics_layer_0/angular_velocity = 0.0
0:1/0/physics_layer_1/linear_velocity = Vector2(0, 0)
0:1/0/physics_layer_1/angular_velocity = 0.0
1:1/0 = 0
1:1/0/physics_layer_0/linear_velocity = Vector2(0, 0)
1:1/0/physics_layer_0/angular_velocity = 0.0
1:1/0/physics_layer_1/linear_velocity = Vector2(0, 0)
1:1/0/physics_layer_1/angular_velocity = 0.0
2:1/0 = 0
2:1/0/physics_layer_0/linear_velocity = Vector2(0, 0)
2:1/0/physics_layer_0/angular_velocity = 0.0
2:1/0/physics_layer_1/linear_velocity = Vector2(0, 0)
2:1/0/physics_layer_1/angular_velocity = 0.0
4:1/0 = 0
4:1/0/physics_layer_0/linear_velocity = Vector2(0, 0)
4:1/0/physics_layer_0/angular_velocity = 0.0
4:1/0/physics_layer_1/linear_velocity = Vector2(0, 0)
4:1/0/physics_layer_1/angular_velocity = 0.0
5:1/0 = 0
5:1/0/physics_layer_0/linear_velocity = Vector2(0, 0)
5:1/0/physics_layer_0/angular_velocity = 0.0
5:1/0/physics_layer_1/linear_velocity = Vector2(0, 0)
5:1/0/physics_layer_1/angular_velocity = 0.0
6:1/0 = 0
6:1/0/physics_layer_0/linear_velocity = Vector2(0, 0)
6:1/0/physics_layer_0/angular_velocity = 0.0
6:1/0/physics_layer_1/linear_velocity = Vector2(0, 0)
6:1/0/physics_layer_1/angular_velocity = 0.0
8:1/0 = 0
8:1/0/physics_layer_0/linear_velocity = Vector2(0, 0)
8:1/0/physics_layer_0/angular_velocity = 0.0
8:1/0/physics_layer_1/linear_velocity = Vector2(0, 0)
8:1/0/physics_layer_1/angular_velocity = 0.0
9:1/0 = 0
9:1/0/physics_layer_0/linear_velocity = Vector2(0, 0)
9:1/0/physics_layer_0/angular_velocity = 0.0
9:1/0/physics_layer_1/linear_velocity = Vector2(0, 0)
9:1/0/physics_layer_1/angular_velocity = 0.0
10:1/0 = 0
10:1/0/physics_layer_0/linear_velocity = Vector2(0, 0)
10:1/0/physics_layer_0/angular_velocity = 0.0
10:1/0/physics_layer_1/linear_velocity = Vector2(0, 0)
10:1/0/physics_layer_1/angular_velocity = 0.0
11:1/0 = 0
11:1/0/physics_layer_0/linear_velocity = Vector2(0, 0)
11:1/0/physics_layer_0/angular_velocity = 0.0
11:1/0/physics_layer_1/linear_velocity = Vector2(0, 0)
11:1/0/physics_layer_1/angular_velocity = 0.0
12:1/0 = 0
12:1/0/physics_layer_0/linear_velocity = Vector2(0, 0)
12:1/0/physics_layer_0/angular_velocity = 0.0
12:1/0/physics_layer_1/linear_velocity = Vector2(0, 0)
12:1/0/physics_layer_1/angular_velocity = 0.0
13:1/0 = 0
13:1/0/physics_layer_0/linear_velocity = Vector2(0, 0)
13:1/0/physics_layer_0/angular_velocity = 0.0
13:1/0/physics_layer_1/linear_velocity = Vector2(0, 0)
13:1/0/physics_layer_1/angular_velocity = 0.0
14:1/0 = 0
14:1/0/physics_layer_0/linear_velocity = Vector2(0, 0)
14:1/0/physics_layer_0/angular_velocity = 0.0
14:1/0/physics_layer_1/linear_velocity = Vector2(0, 0)
14:1/0/physics_layer_1/angular_velocity = 0.0
15:1/0 = 0
15:1/0/physics_layer_0/linear_velocity = Vector2(0, 0)
15:1/0/physics_layer_0/angular_velocity = 0.0
15:1/0/physics_layer_1/linear_velocity = Vector2(0, 0)
15:1/0/physics_layer_1/angular_velocity = 0.0
0:2/0 = 0
0:2/0/physics_layer_0/linear_velocity = Vector2(0, 0)
0:2/0/physics_layer_0/angular_velocity = 0.0
0:2/0/physics_layer_1/linear_velocity = Vector2(0, 0)
0:2/0/physics_layer_1/angular_velocity = 0.0
1:2/0 = 0
1:2/0/physics_layer_0/linear_velocity = Vector2(0, 0)
1:2/0/physics_layer_0/angular_velocity = 0.0
1:2/0/physics_layer_1/linear_velocity = Vector2(0, 0)
1:2/0/physics_layer_1/angular_velocity = 0.0
2:2/0 = 0
2:2/0/physics_layer_0/linear_velocity = Vector2(0, 0)
2:2/0/physics_layer_0/angular_velocity = 0.0
2:2/0/physics_layer_1/linear_velocity = Vector2(0, 0)
2:2/0/physics_layer_1/angular_velocity = 0.0
5:2/0 = 0
5:2/0/physics_layer_0/linear_velocity = Vector2(0, 0)
5:2/0/physics_layer_0/angular_velocity = 0.0
5:2/0/physics_layer_1/linear_velocity = Vector2(0, 0)
5:2/0/physics_layer_1/angular_velocity = 0.0
6:2/0 = 0
6:2/0/physics_layer_0/linear_velocity = Vector2(0, 0)
6:2/0/physics_layer_0/angular_velocity = 0.0
6:2/0/physics_layer_1/linear_velocity = Vector2(0, 0)
6:2/0/physics_layer_1/angular_velocity = 0.0
7:2/0 = 0
7:2/0/physics_layer_0/linear_velocity = Vector2(0, 0)
7:2/0/physics_layer_0/angular_velocity = 0.0
7:2/0/physics_layer_1/linear_velocity = Vector2(0, 0)
7:2/0/physics_layer_1/angular_velocity = 0.0
8:2/0 = 0
8:2/0/physics_layer_0/linear_velocity = Vector2(0, 0)
8:2/0/physics_layer_0/angular_velocity = 0.0
8:2/0/physics_layer_1/linear_velocity = Vector2(0, 0)
8:2/0/physics_layer_1/angular_velocity = 0.0
9:2/0 = 0
9:2/0/physics_layer_0/linear_velocity = Vector2(0, 0)
9:2/0/physics_layer_0/angular_velocity = 0.0
9:2/0/physics_layer_1/linear_velocity = Vector2(0, 0)
9:2/0/physics_layer_1/angular_velocity = 0.0
10:2/0 = 0
10:2/0/physics_layer_0/linear_velocity = Vector2(0, 0)
10:2/0/physics_layer_0/angular_velocity = 0.0
10:2/0/physics_layer_1/linear_velocity = Vector2(0, 0)
10:2/0/physics_layer_1/angular_velocity = 0.0
11:2/0 = 0
11:2/0/physics_layer_0/linear_velocity = Vector2(0, 0)
11:2/0/physics_layer_0/angular_velocity = 0.0
11:2/0/physics_layer_1/linear_velocity = Vector2(0, 0)
11:2/0/physics_layer_1/angular_velocity = 0.0
12:2/0 = 0
12:2/0/physics_layer_0/linear_velocity = Vector2(0, 0)
12:2/0/physics_layer_0/angular_velocity = 0.0
12:2/0/physics_layer_1/linear_velocity = Vector2(0, 0)
12:2/0/physics_layer_1/angular_velocity = 0.0
13:2/0 = 0
13:2/0/physics_layer_0/linear_velocity = Vector2(0, 0)
13:2/0/physics_layer_0/angular_velocity = 0.0
13:2/0/physics_layer_1/linear_velocity = Vector2(0, 0)
13:2/0/physics_layer_1/angular_velocity = 0.0
14:2/0 = 0
14:2/0/physics_layer_0/linear_velocity = Vector2(0, 0)
14:2/0/physics_layer_0/angular_velocity = 0.0
14:2/0/physics_layer_1/linear_velocity = Vector2(0, 0)
14:2/0/physics_layer_1/angular_velocity = 0.0
15:2/0 = 0
15:2/0/physics_layer_0/linear_velocity = Vector2(0, 0)
15:2/0/physics_layer_0/angular_velocity = 0.0
15:2/0/physics_layer_1/linear_velocity = Vector2(0, 0)
15:2/0/physics_layer_1/angular_velocity = 0.0
0:3/0 = 0
0:3/0/physics_layer_0/linear_velocity = Vector2(0, 0)
0:3/0/physics_layer_0/angular_velocity = 0.0
0:3/0/physics_layer_1/linear_velocity = Vector2(0, 0)
0:3/0/physics_layer_1/angular_velocity = 0.0
1:3/0 = 0
1:3/0/physics_layer_0/linear_velocity = Vector2(0, 0)
1:3/0/physics_layer_0/angular_velocity = 0.0
1:3/0/physics_layer_1/linear_velocity = Vector2(0, 0)
1:3/0/physics_layer_1/angular_velocity = 0.0
2:3/0 = 0
2:3/0/physics_layer_0/linear_velocity = Vector2(0, 0)
2:3/0/physics_layer_0/angular_velocity = 0.0
2:3/0/physics_layer_1/linear_velocity = Vector2(0, 0)
2:3/0/physics_layer_1/angular_velocity = 0.0
4:3/0 = 0
4:3/0/physics_layer_0/linear_velocity = Vector2(0, 0)
4:3/0/physics_layer_0/angular_velocity = 0.0
4:3/0/physics_layer_1/linear_velocity = Vector2(0, 0)
4:3/0/physics_layer_1/angular_velocity = 0.0
5:3/0 = 0
5:3/0/physics_layer_0/linear_velocity = Vector2(0, 0)
5:3/0/physics_layer_0/angular_velocity = 0.0
5:3/0/physics_layer_1/linear_velocity = Vector2(0, 0)
5:3/0/physics_layer_1/angular_velocity = 0.0
6:3/0 = 0
6:3/0/physics_layer_0/linear_velocity = Vector2(0, 0)
6:3/0/physics_layer_0/angular_velocity = 0.0
6:3/0/physics_layer_1/linear_velocity = Vector2(0, 0)
6:3/0/physics_layer_1/angular_velocity = 0.0
8:3/0 = 0
8:3/0/physics_layer_0/linear_velocity = Vector2(0, 0)
8:3/0/physics_layer_0/angular_velocity = 0.0
8:3/0/physics_layer_1/linear_velocity = Vector2(0, 0)
8:3/0/physics_layer_1/angular_velocity = 0.0
9:3/0 = 0
9:3/0/physics_layer_0/linear_velocity = Vector2(0, 0)
9:3/0/physics_layer_0/angular_velocity = 0.0
9:3/0/physics_layer_1/linear_velocity = Vector2(0, 0)
9:3/0/physics_layer_1/angular_velocity = 0.0
10:3/0 = 0
10:3/0/physics_layer_0/linear_velocity = Vector2(0, 0)
10:3/0/physics_layer_0/angular_velocity = 0.0
10:3/0/physics_layer_1/linear_velocity = Vector2(0, 0)
10:3/0/physics_layer_1/angular_velocity = 0.0
11:3/0 = 0
11:3/0/physics_layer_0/linear_velocity = Vector2(0, 0)
11:3/0/physics_layer_0/angular_velocity = 0.0
11:3/0/physics_layer_1/linear_velocity = Vector2(0, 0)
11:3/0/physics_layer_1/angular_velocity = 0.0
12:3/0 = 0
12:3/0/physics_layer_0/linear_velocity = Vector2(0, 0)
12:3/0/physics_layer_0/angular_velocity = 0.0
12:3/0/physics_layer_1/linear_velocity = Vector2(0, 0)
12:3/0/physics_layer_1/angular_velocity = 0.0
13:3/0 = 0
13:3/0/physics_layer_0/linear_velocity = Vector2(0, 0)
13:3/0/physics_layer_0/angular_velocity = 0.0
13:3/0/physics_layer_1/linear_velocity = Vector2(0, 0)
13:3/0/physics_layer_1/angular_velocity = 0.0
14:3/0 = 0
14:3/0/physics_layer_0/linear_velocity = Vector2(0, 0)
14:3/0/physics_layer_0/angular_velocity = 0.0
14:3/0/physics_layer_1/linear_velocity = Vector2(0, 0)
14:3/0/physics_layer_1/angular_velocity = 0.0
15:3/0 = 0
15:3/0/physics_layer_0/linear_velocity = Vector2(0, 0)
15:3/0/physics_layer_0/angular_velocity = 0.0
15:3/0/physics_layer_1/linear_velocity = Vector2(0, 0)
15:3/0/physics_layer_1/angular_velocity = 0.0
0:4/0 = 0
0:4/0/physics_layer_0/linear_velocity = Vector2(0, 0)
0:4/0/physics_layer_0/angular_velocity = 0.0
0:4/0/physics_layer_1/linear_velocity = Vector2(0, 0)
0:4/0/physics_layer_1/angular_velocity = 0.0
2:4/0 = 0
2:4/0/physics_layer_0/linear_velocity = Vector2(0, 0)
2:4/0/physics_layer_0/angular_velocity = 0.0
2:4/0/physics_layer_1/linear_velocity = Vector2(0, 0)
2:4/0/physics_layer_1/angular_velocity = 0.0
3:4/0 = 0
3:4/0/physics_layer_0/linear_velocity = Vector2(0, 0)
3:4/0/physics_layer_0/angular_velocity = 0.0
3:4/0/physics_layer_1/linear_velocity = Vector2(0, 0)
3:4/0/physics_layer_1/angular_velocity = 0.0
4:4/0 = 0
4:4/0/physics_layer_0/linear_velocity = Vector2(0, 0)
4:4/0/physics_layer_0/angular_velocity = 0.0
4:4/0/physics_layer_1/linear_velocity = Vector2(0, 0)
4:4/0/physics_layer_1/angular_velocity = 0.0
5:4/0 = 0
5:4/0/physics_layer_0/linear_velocity = Vector2(0, 0)
5:4/0/physics_layer_0/angular_velocity = 0.0
5:4/0/physics_layer_1/linear_velocity = Vector2(0, 0)
5:4/0/physics_layer_1/angular_velocity = 0.0
6:4/0 = 0
6:4/0/physics_layer_0/linear_velocity = Vector2(0, 0)
6:4/0/physics_layer_0/angular_velocity = 0.0
6:4/0/physics_layer_1/linear_velocity = Vector2(0, 0)
6:4/0/physics_layer_1/angular_velocity = 0.0
7:4/0 = 0
7:4/0/physics_layer_0/linear_velocity = Vector2(0, 0)
7:4/0/physics_layer_0/angular_velocity = 0.0
7:4/0/physics_layer_1/linear_velocity = Vector2(0, 0)
7:4/0/physics_layer_1/angular_velocity = 0.0
10:4/0 = 0
10:4/0/physics_layer_0/linear_velocity = Vector2(0, 0)
10:4/0/physics_layer_0/angular_velocity = 0.0
10:4/0/physics_layer_1/linear_velocity = Vector2(0, 0)
10:4/0/physics_layer_1/angular_velocity = 0.0
11:4/0 = 0
11:4/0/physics_layer_0/linear_velocity = Vector2(0, 0)
11:4/0/physics_layer_0/angular_velocity = 0.0
11:4/0/physics_layer_1/linear_velocity = Vector2(0, 0)
11:4/0/physics_layer_1/angular_velocity = 0.0
12:4/0 = 0
12:4/0/physics_layer_0/linear_velocity = Vector2(0, 0)
12:4/0/physics_layer_0/angular_velocity = 0.0
12:4/0/physics_layer_1/linear_velocity = Vector2(0, 0)
12:4/0/physics_layer_1/angular_velocity = 0.0
13:4/0 = 0
13:4/0/physics_layer_0/linear_velocity = Vector2(0, 0)
13:4/0/physics_layer_0/angular_velocity = 0.0
13:4/0/physics_layer_1/linear_velocity = Vector2(0, 0)
13:4/0/physics_layer_1/angular_velocity = 0.0
14:4/0 = 0
14:4/0/physics_layer_0/linear_velocity = Vector2(0, 0)
14:4/0/physics_layer_0/angular_velocity = 0.0
14:4/0/physics_layer_1/linear_velocity = Vector2(0, 0)
14:4/0/physics_layer_1/angular_velocity = 0.0
15:4/0 = 0
15:4/0/physics_layer_0/linear_velocity = Vector2(0, 0)
15:4/0/physics_layer_0/angular_velocity = 0.0
15:4/0/physics_layer_1/linear_velocity = Vector2(0, 0)
15:4/0/physics_layer_1/angular_velocity = 0.0
0:5/0 = 0
0:5/0/physics_layer_0/linear_velocity = Vector2(0, 0)
0:5/0/physics_layer_0/angular_velocity = 0.0
0:5/0/physics_layer_1/linear_velocity = Vector2(0, 0)
0:5/0/physics_layer_1/angular_velocity = 0.0
1:5/0 = 0
1:5/0/physics_layer_0/linear_velocity = Vector2(0, 0)
1:5/0/physics_layer_0/angular_velocity = 0.0
1:5/0/physics_layer_1/linear_velocity = Vector2(0, 0)
1:5/0/physics_layer_1/angular_velocity = 0.0
2:5/0 = 0
2:5/0/physics_layer_0/linear_velocity = Vector2(0, 0)
2:5/0/physics_layer_0/angular_velocity = 0.0
2:5/0/physics_layer_1/linear_velocity = Vector2(0, 0)
2:5/0/physics_layer_1/angular_velocity = 0.0
3:5/0 = 0
3:5/0/physics_layer_0/linear_velocity = Vector2(0, 0)
3:5/0/physics_layer_0/angular_velocity = 0.0
3:5/0/physics_layer_1/linear_velocity = Vector2(0, 0)
3:5/0/physics_layer_1/angular_velocity = 0.0
4:5/0 = 0
4:5/0/physics_layer_0/linear_velocity = Vector2(0, 0)
4:5/0/physics_layer_0/angular_velocity = 0.0
4:5/0/physics_layer_1/linear_velocity = Vector2(0, 0)
4:5/0/physics_layer_1/angular_velocity = 0.0
5:5/0 = 0
5:5/0/physics_layer_0/linear_velocity = Vector2(0, 0)
5:5/0/physics_layer_0/angular_velocity = 0.0
5:5/0/physics_layer_1/linear_velocity = Vector2(0, 0)
5:5/0/physics_layer_1/angular_velocity = 0.0
6:5/0 = 0
6:5/0/physics_layer_0/linear_velocity = Vector2(0, 0)
6:5/0/physics_layer_0/angular_velocity = 0.0
6:5/0/physics_layer_1/linear_velocity = Vector2(0, 0)
6:5/0/physics_layer_1/angular_velocity = 0.0
7:5/0 = 0
7:5/0/physics_layer_0/linear_velocity = Vector2(0, 0)
7:5/0/physics_layer_0/angular_velocity = 0.0
7:5/0/physics_layer_1/linear_velocity = Vector2(0, 0)
7:5/0/physics_layer_1/angular_velocity = 0.0
10:5/0 = 0
10:5/0/physics_layer_0/linear_velocity = Vector2(0, 0)
10:5/0/physics_layer_0/angular_velocity = 0.0
10:5/0/physics_layer_1/linear_velocity = Vector2(0, 0)
10:5/0/physics_layer_1/angular_velocity = 0.0
11:5/0 = 0
11:5/0/physics_layer_0/linear_velocity = Vector2(0, 0)
11:5/0/physics_layer_0/angular_velocity = 0.0
11:5/0/physics_layer_1/linear_velocity = Vector2(0, 0)
11:5/0/physics_layer_1/angular_velocity = 0.0
12:5/0 = 0
12:5/0/physics_layer_0/linear_velocity = Vector2(0, 0)
12:5/0/physics_layer_0/angular_velocity = 0.0
12:5/0/physics_layer_1/linear_velocity = Vector2(0, 0)
12:5/0/physics_layer_1/angular_velocity = 0.0
13:5/0 = 0
13:5/0/physics_layer_0/linear_velocity = Vector2(0, 0)
13:5/0/physics_layer_0/angular_velocity = 0.0
13:5/0/physics_layer_1/linear_velocity = Vector2(0, 0)
13:5/0/physics_layer_1/angular_velocity = 0.0
14:5/0 = 0
14:5/0/physics_layer_0/linear_velocity = Vector2(0, 0)
14:5/0/physics_layer_0/angular_velocity = 0.0
14:5/0/physics_layer_1/linear_velocity = Vector2(0, 0)
14:5/0/physics_layer_1/angular_velocity = 0.0
15:5/0 = 0
15:5/0/physics_layer_0/linear_velocity = Vector2(0, 0)
15:5/0/physics_layer_0/angular_velocity = 0.0
15:5/0/physics_layer_1/linear_velocity = Vector2(0, 0)
15:5/0/physics_layer_1/angular_velocity = 0.0
0:6/0 = 0
0:6/0/physics_layer_0/linear_velocity = Vector2(0, 0)
0:6/0/physics_layer_0/angular_velocity = 0.0
0:6/0/physics_layer_1/linear_velocity = Vector2(0, 0)
0:6/0/physics_layer_1/angular_velocity = 0.0
2:6/0 = 0
2:6/0/physics_layer_0/linear_velocity = Vector2(0, 0)
2:6/0/physics_layer_0/angular_velocity = 0.0
2:6/0/physics_layer_1/linear_velocity = Vector2(0, 0)
2:6/0/physics_layer_1/angular_velocity = 0.0
3:6/0 = 0
3:6/0/physics_layer_0/linear_velocity = Vector2(0, 0)
3:6/0/physics_layer_0/angular_velocity = 0.0
3:6/0/physics_layer_1/linear_velocity = Vector2(0, 0)
3:6/0/physics_layer_1/angular_velocity = 0.0
4:6/0 = 0
4:6/0/physics_layer_0/linear_velocity = Vector2(0, 0)
4:6/0/physics_layer_0/angular_velocity = 0.0
4:6/0/physics_layer_1/linear_velocity = Vector2(0, 0)
4:6/0/physics_layer_1/angular_velocity = 0.0
5:6/0 = 0
5:6/0/physics_layer_0/linear_velocity = Vector2(0, 0)
5:6/0/physics_layer_0/angular_velocity = 0.0
5:6/0/physics_layer_1/linear_velocity = Vector2(0, 0)
5:6/0/physics_layer_1/angular_velocity = 0.0
6:6/0 = 0
6:6/0/physics_layer_0/linear_velocity = Vector2(0, 0)
6:6/0/physics_layer_0/angular_velocity = 0.0
6:6/0/physics_layer_1/linear_velocity = Vector2(0, 0)
6:6/0/physics_layer_1/angular_velocity = 0.0
7:6/0 = 0
7:6/0/physics_layer_0/linear_velocity = Vector2(0, 0)
7:6/0/physics_layer_0/angular_velocity = 0.0
7:6/0/physics_layer_1/linear_velocity = Vector2(0, 0)
7:6/0/physics_layer_1/angular_velocity = 0.0
9:6/0 = 0
9:6/0/physics_layer_0/linear_velocity = Vector2(0, 0)
9:6/0/physics_layer_0/angular_velocity = 0.0
9:6/0/physics_layer_1/linear_velocity = Vector2(0, 0)
9:6/0/physics_layer_1/angular_velocity = 0.0
10:6/0 = 0
10:6/0/physics_layer_0/linear_velocity = Vector2(0, 0)
10:6/0/physics_layer_0/angular_velocity = 0.0
10:6/0/physics_layer_1/linear_velocity = Vector2(0, 0)
10:6/0/physics_layer_1/angular_velocity = 0.0
11:6/0 = 0
11:6/0/physics_layer_0/linear_velocity = Vector2(0, 0)
11:6/0/physics_layer_0/angular_velocity = 0.0
11:6/0/physics_layer_1/linear_velocity = Vector2(0, 0)
11:6/0/physics_layer_1/angular_velocity = 0.0
12:6/0 = 0
12:6/0/physics_layer_0/linear_velocity = Vector2(0, 0)
12:6/0/physics_layer_0/angular_velocity = 0.0
12:6/0/physics_layer_1/linear_velocity = Vector2(0, 0)
12:6/0/physics_layer_1/angular_velocity = 0.0
13:6/0 = 0
13:6/0/physics_layer_0/linear_velocity = Vector2(0, 0)
13:6/0/physics_layer_0/angular_velocity = 0.0
13:6/0/physics_layer_1/linear_velocity = Vector2(0, 0)
13:6/0/physics_layer_1/angular_velocity = 0.0
14:6/0 = 0
14:6/0/physics_layer_0/linear_velocity = Vector2(0, 0)
14:6/0/physics_layer_0/angular_velocity = 0.0
14:6/0/physics_layer_1/linear_velocity = Vector2(0, 0)
14:6/0/physics_layer_1/angular_velocity = 0.0
15:6/0 = 0
15:6/0/physics_layer_0/linear_velocity = Vector2(0, 0)
15:6/0/physics_layer_0/angular_velocity = 0.0
15:6/0/physics_layer_1/linear_velocity = Vector2(0, 0)
15:6/0/physics_layer_1/angular_velocity = 0.0
0:7/0 = 0
0:7/0/physics_layer_0/linear_velocity = Vector2(0, 0)
0:7/0/physics_layer_0/angular_velocity = 0.0
0:7/0/physics_layer_1/linear_velocity = Vector2(0, 0)
0:7/0/physics_layer_1/angular_velocity = 0.0
1:7/0 = 0
1:7/0/physics_layer_0/linear_velocity = Vector2(0, 0)
1:7/0/physics_layer_0/angular_velocity = 0.0
1:7/0/physics_layer_1/linear_velocity = Vector2(0, 0)
1:7/0/physics_layer_1/angular_velocity = 0.0
2:7/0 = 0
2:7/0/physics_layer_0/linear_velocity = Vector2(0, 0)
2:7/0/physics_layer_0/angular_velocity = 0.0
2:7/0/physics_layer_1/linear_velocity = Vector2(0, 0)
2:7/0/physics_layer_1/angular_velocity = 0.0
3:7/0 = 0
3:7/0/physics_layer_0/linear_velocity = Vector2(0, 0)
3:7/0/physics_layer_0/angular_velocity = 0.0
3:7/0/physics_layer_1/linear_velocity = Vector2(0, 0)
3:7/0/physics_layer_1/angular_velocity = 0.0
4:7/0 = 0
4:7/0/physics_layer_0/linear_velocity = Vector2(0, 0)
4:7/0/physics_layer_0/angular_velocity = 0.0
4:7/0/physics_layer_1/linear_velocity = Vector2(0, 0)
4:7/0/physics_layer_1/angular_velocity = 0.0
5:7/0 = 0
5:7/0/physics_layer_0/linear_velocity = Vector2(0, 0)
5:7/0/physics_layer_0/angular_velocity = 0.0
5:7/0/physics_layer_1/linear_velocity = Vector2(0, 0)
5:7/0/physics_layer_1/angular_velocity = 0.0
6:7/0 = 0
6:7/0/physics_layer_0/linear_velocity = Vector2(0, 0)
6:7/0/physics_layer_0/angular_velocity = 0.0
6:7/0/physics_layer_1/linear_velocity = Vector2(0, 0)
6:7/0/physics_layer_1/angular_velocity = 0.0
7:7/0 = 0
7:7/0/physics_layer_0/linear_velocity = Vector2(0, 0)
7:7/0/physics_layer_0/angular_velocity = 0.0
7:7/0/physics_layer_1/linear_velocity = Vector2(0, 0)
7:7/0/physics_layer_1/angular_velocity = 0.0
8:7/0 = 0
8:7/0/physics_layer_0/linear_velocity = Vector2(0, 0)
8:7/0/physics_layer_0/angular_velocity = 0.0
8:7/0/physics_layer_1/linear_velocity = Vector2(0, 0)
8:7/0/physics_layer_1/angular_velocity = 0.0
9:7/0 = 0
9:7/0/physics_layer_0/linear_velocity = Vector2(0, 0)
9:7/0/physics_layer_0/angular_velocity = 0.0
9:7/0/physics_layer_1/linear_velocity = Vector2(0, 0)
9:7/0/physics_layer_1/angular_velocity = 0.0
10:7/0 = 0
10:7/0/physics_layer_0/linear_velocity = Vector2(0, 0)
10:7/0/physics_layer_0/angular_velocity = 0.0
10:7/0/physics_layer_1/linear_velocity = Vector2(0, 0)
10:7/0/physics_layer_1/angular_velocity = 0.0
11:7/0 = 0
11:7/0/physics_layer_0/linear_velocity = Vector2(0, 0)
11:7/0/physics_layer_0/angular_velocity = 0.0
11:7/0/physics_layer_1/linear_velocity = Vector2(0, 0)
11:7/0/physics_layer_1/angular_velocity = 0.0
12:7/0 = 0
12:7/0/physics_layer_0/linear_velocity = Vector2(0, 0)
12:7/0/physics_layer_0/angular_velocity = 0.0
12:7/0/physics_layer_1/linear_velocity = Vector2(0, 0)
12:7/0/physics_layer_1/angular_velocity = 0.0
13:7/0 = 0
13:7/0/physics_layer_0/linear_velocity = Vector2(0, 0)
13:7/0/physics_layer_0/angular_velocity = 0.0
13:7/0/physics_layer_1/linear_velocity = Vector2(0, 0)
13:7/0/physics_layer_1/angular_velocity = 0.0
14:7/0 = 0
14:7/0/physics_layer_0/linear_velocity = Vector2(0, 0)
14:7/0/physics_layer_0/angular_velocity = 0.0
14:7/0/physics_layer_1/linear_velocity = Vector2(0, 0)
14:7/0/physics_layer_1/angular_velocity = 0.0
15:7/0 = 0
15:7/0/physics_layer_0/linear_velocity = Vector2(0, 0)
15:7/0/physics_layer_0/angular_velocity = 0.0
15:7/0/physics_layer_1/linear_velocity = Vector2(0, 0)
15:7/0/physics_layer_1/angular_velocity = 0.0
2:8/0 = 0
2:8/0/physics_layer_0/linear_velocity = Vector2(0, 0)
2:8/0/physics_layer_0/angular_velocity = 0.0
2:8/0/physics_layer_1/linear_velocity = Vector2(0, 0)
2:8/0/physics_layer_1/angular_velocity = 0.0
3:8/0 = 0
3:8/0/physics_layer_0/linear_velocity = Vector2(0, 0)
3:8/0/physics_layer_0/angular_velocity = 0.0
3:8/0/physics_layer_1/linear_velocity = Vector2(0, 0)
3:8/0/physics_layer_1/angular_velocity = 0.0
7:8/0 = 0
7:8/0/physics_layer_0/linear_velocity = Vector2(0, 0)
7:8/0/physics_layer_0/angular_velocity = 0.0
7:8/0/physics_layer_1/linear_velocity = Vector2(0, 0)
7:8/0/physics_layer_1/angular_velocity = 0.0
8:8/0 = 0
8:8/0/physics_layer_0/linear_velocity = Vector2(0, 0)
8:8/0/physics_layer_0/angular_velocity = 0.0
8:8/0/physics_layer_1/linear_velocity = Vector2(0, 0)
8:8/0/physics_layer_1/angular_velocity = 0.0
10:8/0 = 0
10:8/0/physics_layer_0/linear_velocity = Vector2(0, 0)
10:8/0/physics_layer_0/angular_velocity = 0.0
10:8/0/physics_layer_1/linear_velocity = Vector2(0, 0)
10:8/0/physics_layer_1/angular_velocity = 0.0
11:8/0 = 0
11:8/0/physics_layer_0/linear_velocity = Vector2(0, 0)
11:8/0/physics_layer_0/angular_velocity = 0.0
11:8/0/physics_layer_1/linear_velocity = Vector2(0, 0)
11:8/0/physics_layer_1/angular_velocity = 0.0
12:8/0 = 0
12:8/0/physics_layer_0/linear_velocity = Vector2(0, 0)
12:8/0/physics_layer_0/angular_velocity = 0.0
12:8/0/physics_layer_1/linear_velocity = Vector2(0, 0)
12:8/0/physics_layer_1/angular_velocity = 0.0
13:8/0 = 0
13:8/0/physics_layer_0/linear_velocity = Vector2(0, 0)
13:8/0/physics_layer_0/angular_velocity = 0.0
13:8/0/physics_layer_1/linear_velocity = Vector2(0, 0)
13:8/0/physics_layer_1/angular_velocity = 0.0
14:8/0 = 0
14:8/0/physics_layer_0/linear_velocity = Vector2(0, 0)
14:8/0/physics_layer_0/angular_velocity = 0.0
14:8/0/physics_layer_1/linear_velocity = Vector2(0, 0)
14:8/0/physics_layer_1/angular_velocity = 0.0
15:8/0 = 0
15:8/0/physics_layer_0/linear_velocity = Vector2(0, 0)
15:8/0/physics_layer_0/angular_velocity = 0.0
15:8/0/physics_layer_1/linear_velocity = Vector2(0, 0)
15:8/0/physics_layer_1/angular_velocity = 0.0
2:9/0 = 0
2:9/0/physics_layer_0/linear_velocity = Vector2(0, 0)
2:9/0/physics_layer_0/angular_velocity = 0.0
2:9/0/physics_layer_1/linear_velocity = Vector2(0, 0)
2:9/0/physics_layer_1/angular_velocity = 0.0
3:9/0 = 0
3:9/0/physics_layer_0/linear_velocity = Vector2(0, 0)
3:9/0/physics_layer_0/angular_velocity = 0.0
3:9/0/physics_layer_1/linear_velocity = Vector2(0, 0)
3:9/0/physics_layer_1/angular_velocity = 0.0
4:9/0 = 0
4:9/0/physics_layer_0/linear_velocity = Vector2(0, 0)
4:9/0/physics_layer_0/angular_velocity = 0.0
4:9/0/physics_layer_1/linear_velocity = Vector2(0, 0)
4:9/0/physics_layer_1/angular_velocity = 0.0
6:9/0 = 0
6:9/0/physics_layer_0/linear_velocity = Vector2(0, 0)
6:9/0/physics_layer_0/angular_velocity = 0.0
6:9/0/physics_layer_1/linear_velocity = Vector2(0, 0)
6:9/0/physics_layer_1/angular_velocity = 0.0
7:9/0 = 0
7:9/0/physics_layer_0/linear_velocity = Vector2(0, 0)
7:9/0/physics_layer_0/angular_velocity = 0.0
7:9/0/physics_layer_1/linear_velocity = Vector2(0, 0)
7:9/0/physics_layer_1/angular_velocity = 0.0
8:9/0 = 0
8:9/0/physics_layer_0/linear_velocity = Vector2(0, 0)
8:9/0/physics_layer_0/angular_velocity = 0.0
8:9/0/physics_layer_1/linear_velocity = Vector2(0, 0)
8:9/0/physics_layer_1/angular_velocity = 0.0
9:9/0 = 0
9:9/0/physics_layer_0/linear_velocity = Vector2(0, 0)
9:9/0/physics_layer_0/angular_velocity = 0.0
9:9/0/physics_layer_1/linear_velocity = Vector2(0, 0)
9:9/0/physics_layer_1/angular_velocity = 0.0
10:9/0 = 0
10:9/0/physics_layer_0/linear_velocity = Vector2(0, 0)
10:9/0/physics_layer_0/angular_velocity = 0.0
10:9/0/physics_layer_1/linear_velocity = Vector2(0, 0)
10:9/0/physics_layer_1/angular_velocity = 0.0
11:9/0 = 0
11:9/0/physics_layer_0/linear_velocity = Vector2(0, 0)
11:9/0/physics_layer_0/angular_velocity = 0.0
11:9/0/physics_layer_1/linear_velocity = Vector2(0, 0)
11:9/0/physics_layer_1/angular_velocity = 0.0
12:9/0 = 0
12:9/0/physics_layer_0/linear_velocity = Vector2(0, 0)
12:9/0/physics_layer_0/angular_velocity = 0.0
12:9/0/physics_layer_1/linear_velocity = Vector2(0, 0)
12:9/0/physics_layer_1/angular_velocity = 0.0
13:9/0 = 0
13:9/0/physics_layer_0/linear_velocity = Vector2(0, 0)
13:9/0/physics_layer_0/angular_velocity = 0.0
13:9/0/physics_layer_1/linear_velocity = Vector2(0, 0)
13:9/0/physics_layer_1/angular_velocity = 0.0
14:9/0 = 0
14:9/0/physics_layer_0/linear_velocity = Vector2(0, 0)
14:9/0/physics_layer_0/angular_velocity = 0.0
14:9/0/physics_layer_1/linear_velocity = Vector2(0, 0)
14:9/0/physics_layer_1/angular_velocity = 0.0
15:9/0 = 0
15:9/0/physics_layer_0/linear_velocity = Vector2(0, 0)
15:9/0/physics_layer_0/angular_velocity = 0.0
15:9/0/physics_layer_1/linear_velocity = Vector2(0, 0)
15:9/0/physics_layer_1/angular_velocity = 0.0
0:10/0 = 0
0:10/0/physics_layer_0/linear_velocity = Vector2(0, 0)
0:10/0/physics_layer_0/angular_velocity = 0.0
0:10/0/physics_layer_1/linear_velocity = Vector2(0, 0)
0:10/0/physics_layer_1/angular_velocity = 0.0
1:10/0 = 0
1:10/0/physics_layer_0/linear_velocity = Vector2(0, 0)
1:10/0/physics_layer_0/angular_velocity = 0.0
1:10/0/physics_layer_1/linear_velocity = Vector2(0, 0)
1:10/0/physics_layer_1/angular_velocity = 0.0
2:10/0 = 0
2:10/0/physics_layer_0/linear_velocity = Vector2(0, 0)
2:10/0/physics_layer_0/angular_velocity = 0.0
2:10/0/physics_layer_1/linear_velocity = Vector2(0, 0)
2:10/0/physics_layer_1/angular_velocity = 0.0
3:10/0 = 0
3:10/0/physics_layer_0/linear_velocity = Vector2(0, 0)
3:10/0/physics_layer_0/angular_velocity = 0.0
3:10/0/physics_layer_1/linear_velocity = Vector2(0, 0)
3:10/0/physics_layer_1/angular_velocity = 0.0
4:10/0 = 0
4:10/0/physics_layer_0/linear_velocity = Vector2(0, 0)
4:10/0/physics_layer_0/angular_velocity = 0.0
4:10/0/physics_layer_1/linear_velocity = Vector2(0, 0)
4:10/0/physics_layer_1/angular_velocity = 0.0
5:10/0 = 0
5:10/0/physics_layer_0/linear_velocity = Vector2(0, 0)
5:10/0/physics_layer_0/angular_velocity = 0.0
5:10/0/physics_layer_1/linear_velocity = Vector2(0, 0)
5:10/0/physics_layer_1/angular_velocity = 0.0
6:10/0 = 0
6:10/0/physics_layer_0/linear_velocity = Vector2(0, 0)
6:10/0/physics_layer_0/angular_velocity = 0.0
6:10/0/physics_layer_1/linear_velocity = Vector2(0, 0)
6:10/0/physics_layer_1/angular_velocity = 0.0
7:10/0 = 0
7:10/0/physics_layer_0/linear_velocity = Vector2(0, 0)
7:10/0/physics_layer_0/angular_velocity = 0.0
7:10/0/physics_layer_1/linear_velocity = Vector2(0, 0)
7:10/0/physics_layer_1/angular_velocity = 0.0
8:10/0 = 0
8:10/0/physics_layer_0/linear_velocity = Vector2(0, 0)
8:10/0/physics_layer_0/angular_velocity = 0.0
8:10/0/physics_layer_1/linear_velocity = Vector2(0, 0)
8:10/0/physics_layer_1/angular_velocity = 0.0
9:10/0 = 0
9:10/0/physics_layer_0/linear_velocity = Vector2(0, 0)
9:10/0/physics_layer_0/angular_velocity = 0.0
9:10/0/physics_layer_1/linear_velocity = Vector2(0, 0)
9:10/0/physics_layer_1/angular_velocity = 0.0
10:10/0 = 0
10:10/0/physics_layer_0/linear_velocity = Vector2(0, 0)
10:10/0/physics_layer_0/angular_velocity = 0.0
10:10/0/physics_layer_1/linear_velocity = Vector2(0, 0)
10:10/0/physics_layer_1/angular_velocity = 0.0
11:10/0 = 0
11:10/0/physics_layer_0/linear_velocity = Vector2(0, 0)
11:10/0/physics_layer_0/angular_velocity = 0.0
11:10/0/physics_layer_1/linear_velocity = Vector2(0, 0)
11:10/0/physics_layer_1/angular_velocity = 0.0
12:10/0 = 0
12:10/0/physics_layer_0/linear_velocity = Vector2(0, 0)
12:10/0/physics_layer_0/angular_velocity = 0.0
12:10/0/physics_layer_1/linear_velocity = Vector2(0, 0)
12:10/0/physics_layer_1/angular_velocity = 0.0
13:10/0 = 0
13:10/0/physics_layer_0/linear_velocity = Vector2(0, 0)
13:10/0/physics_layer_0/angular_velocity = 0.0
13:10/0/physics_layer_1/linear_velocity = Vector2(0, 0)
13:10/0/physics_layer_1/angular_velocity = 0.0
14:10/0 = 0
14:10/0/physics_layer_0/linear_velocity = Vector2(0, 0)
14:10/0/physics_layer_0/angular_velocity = 0.0
14:10/0/physics_layer_1/linear_velocity = Vector2(0, 0)
14:10/0/physics_layer_1/angular_velocity = 0.0
15:10/0 = 0
15:10/0/physics_layer_0/linear_velocity = Vector2(0, 0)
15:10/0/physics_layer_0/angular_velocity = 0.0
15:10/0/physics_layer_1/linear_velocity = Vector2(0, 0)
15:10/0/physics_layer_1/angular_velocity = 0.0
0:11/0 = 0
0:11/0/physics_layer_0/linear_velocity = Vector2(0, 0)
0:11/0/physics_layer_0/angular_velocity = 0.0
0:11/0/physics_layer_1/linear_velocity = Vector2(0, 0)
0:11/0/physics_layer_1/angular_velocity = 0.0
1:11/0 = 0
1:11/0/physics_layer_0/linear_velocity = Vector2(0, 0)
1:11/0/physics_layer_0/angular_velocity = 0.0
1:11/0/physics_layer_1/linear_velocity = Vector2(0, 0)
1:11/0/physics_layer_1/angular_velocity = 0.0
2:11/0 = 0
2:11/0/physics_layer_0/linear_velocity = Vector2(0, 0)
2:11/0/physics_layer_0/angular_velocity = 0.0
2:11/0/physics_layer_1/linear_velocity = Vector2(0, 0)
2:11/0/physics_layer_1/angular_velocity = 0.0
3:11/0 = 0
3:11/0/physics_layer_0/linear_velocity = Vector2(0, 0)
3:11/0/physics_layer_0/angular_velocity = 0.0
3:11/0/physics_layer_1/linear_velocity = Vector2(0, 0)
3:11/0/physics_layer_1/angular_velocity = 0.0
4:11/0 = 0
4:11/0/physics_layer_0/linear_velocity = Vector2(0, 0)
4:11/0/physics_layer_0/angular_velocity = 0.0
4:11/0/physics_layer_1/linear_velocity = Vector2(0, 0)
4:11/0/physics_layer_1/angular_velocity = 0.0
5:11/0 = 0
5:11/0/physics_layer_0/linear_velocity = Vector2(0, 0)
5:11/0/physics_layer_0/angular_velocity = 0.0
5:11/0/physics_layer_1/linear_velocity = Vector2(0, 0)
5:11/0/physics_layer_1/angular_velocity = 0.0
6:11/0 = 0
6:11/0/physics_layer_0/linear_velocity = Vector2(0, 0)
6:11/0/physics_layer_0/angular_velocity = 0.0
6:11/0/physics_layer_1/linear_velocity = Vector2(0, 0)
6:11/0/physics_layer_1/angular_velocity = 0.0
7:11/0 = 0
7:11/0/physics_layer_0/linear_velocity = Vector2(0, 0)
7:11/0/physics_layer_0/angular_velocity = 0.0
7:11/0/physics_layer_1/linear_velocity = Vector2(0, 0)
7:11/0/physics_layer_1/angular_velocity = 0.0
8:11/0 = 0
8:11/0/physics_layer_0/linear_velocity = Vector2(0, 0)
8:11/0/physics_layer_0/angular_velocity = 0.0
8:11/0/physics_layer_1/linear_velocity = Vector2(0, 0)
8:11/0/physics_layer_1/angular_velocity = 0.0
9:11/0 = 0
9:11/0/physics_layer_0/linear_velocity = Vector2(0, 0)
9:11/0/physics_layer_0/angular_velocity = 0.0
9:11/0/physics_layer_1/linear_velocity = Vector2(0, 0)
9:11/0/physics_layer_1/angular_velocity = 0.0
10:11/0 = 0
10:11/0/physics_layer_0/linear_velocity = Vector2(0, 0)
10:11/0/physics_layer_0/angular_velocity = 0.0
10:11/0/physics_layer_1/linear_velocity = Vector2(0, 0)
10:11/0/physics_layer_1/angular_velocity = 0.0
11:11/0 = 0
11:11/0/physics_layer_0/linear_velocity = Vector2(0, 0)
11:11/0/physics_layer_0/angular_velocity = 0.0
11:11/0/physics_layer_1/linear_velocity = Vector2(0, 0)
11:11/0/physics_layer_1/angular_velocity = 0.0
12:11/0 = 0
12:11/0/physics_layer_0/linear_velocity = Vector2(0, 0)
12:11/0/physics_layer_0/angular_velocity = 0.0
12:11/0/physics_layer_1/linear_velocity = Vector2(0, 0)
12:11/0/physics_layer_1/angular_velocity = 0.0
13:11/0 = 0
13:11/0/physics_layer_0/linear_velocity = Vector2(0, 0)
13:11/0/physics_layer_0/angular_velocity = 0.0
13:11/0/physics_layer_1/linear_velocity = Vector2(0, 0)
13:11/0/physics_layer_1/angular_velocity = 0.0
14:11/0 = 0
14:11/0/physics_layer_0/linear_velocity = Vector2(0, 0)
14:11/0/physics_layer_0/angular_velocity = 0.0
14:11/0/physics_layer_1/linear_velocity = Vector2(0, 0)
14:11/0/physics_layer_1/angular_velocity = 0.0
15:11/0 = 0
15:11/0/physics_layer_0/linear_velocity = Vector2(0, 0)
15:11/0/physics_layer_0/angular_velocity = 0.0
15:11/0/physics_layer_1/linear_velocity = Vector2(0, 0)
15:11/0/physics_layer_1/angular_velocity = 0.0
1:12/0 = 0
1:12/0/physics_layer_0/linear_velocity = Vector2(0, 0)
1:12/0/physics_layer_0/angular_velocity = 0.0
1:12/0/physics_layer_1/linear_velocity = Vector2(0, 0)
1:12/0/physics_layer_1/angular_velocity = 0.0
2:12/0 = 0
2:12/0/physics_layer_0/linear_velocity = Vector2(0, 0)
2:12/0/physics_layer_0/angular_velocity = 0.0
2:12/0/physics_layer_1/linear_velocity = Vector2(0, 0)
2:12/0/physics_layer_1/angular_velocity = 0.0
3:12/0 = 0
3:12/0/physics_layer_0/linear_velocity = Vector2(0, 0)
3:12/0/physics_layer_0/angular_velocity = 0.0
3:12/0/physics_layer_1/linear_velocity = Vector2(0, 0)
3:12/0/physics_layer_1/angular_velocity = 0.0
4:12/0 = 0
4:12/0/physics_layer_0/linear_velocity = Vector2(0, 0)
4:12/0/physics_layer_0/angular_velocity = 0.0
4:12/0/physics_layer_1/linear_velocity = Vector2(0, 0)
4:12/0/physics_layer_1/angular_velocity = 0.0
6:12/0 = 0
6:12/0/physics_layer_0/linear_velocity = Vector2(0, 0)
6:12/0/physics_layer_0/angular_velocity = 0.0
6:12/0/physics_layer_1/linear_velocity = Vector2(0, 0)
6:12/0/physics_layer_1/angular_velocity = 0.0
7:12/0 = 0
7:12/0/physics_layer_0/linear_velocity = Vector2(0, 0)
7:12/0/physics_layer_0/angular_velocity = 0.0
7:12/0/physics_layer_1/linear_velocity = Vector2(0, 0)
7:12/0/physics_layer_1/angular_velocity = 0.0
8:12/0 = 0
8:12/0/physics_layer_0/linear_velocity = Vector2(0, 0)
8:12/0/physics_layer_0/angular_velocity = 0.0
8:12/0/physics_layer_1/linear_velocity = Vector2(0, 0)
8:12/0/physics_layer_1/angular_velocity = 0.0
9:12/0 = 0
9:12/0/physics_layer_0/linear_velocity = Vector2(0, 0)
9:12/0/physics_layer_0/angular_velocity = 0.0
9:12/0/physics_layer_1/linear_velocity = Vector2(0, 0)
9:12/0/physics_layer_1/angular_velocity = 0.0
10:12/0 = 0
10:12/0/physics_layer_0/linear_velocity = Vector2(0, 0)
10:12/0/physics_layer_0/angular_velocity = 0.0
10:12/0/physics_layer_1/linear_velocity = Vector2(0, 0)
10:12/0/physics_layer_1/angular_velocity = 0.0
11:12/0 = 0
11:12/0/physics_layer_0/linear_velocity = Vector2(0, 0)
11:12/0/physics_layer_0/angular_velocity = 0.0
11:12/0/physics_layer_1/linear_velocity = Vector2(0, 0)
11:12/0/physics_layer_1/angular_velocity = 0.0
12:12/0 = 0
12:12/0/physics_layer_0/linear_velocity = Vector2(0, 0)
12:12/0/physics_layer_0/angular_velocity = 0.0
12:12/0/physics_layer_1/linear_velocity = Vector2(0, 0)
12:12/0/physics_layer_1/angular_velocity = 0.0
13:12/0 = 0
13:12/0/physics_layer_0/linear_velocity = Vector2(0, 0)
13:12/0/physics_layer_0/angular_velocity = 0.0
13:12/0/physics_layer_1/linear_velocity = Vector2(0, 0)
13:12/0/physics_layer_1/angular_velocity = 0.0
14:12/0 = 0
14:12/0/physics_layer_0/linear_velocity = Vector2(0, 0)
14:12/0/physics_layer_0/angular_velocity = 0.0
14:12/0/physics_layer_1/linear_velocity = Vector2(0, 0)
14:12/0/physics_layer_1/angular_velocity = 0.0
15:12/0 = 0
15:12/0/physics_layer_0/linear_velocity = Vector2(0, 0)
15:12/0/physics_layer_0/angular_velocity = 0.0
15:12/0/physics_layer_1/linear_velocity = Vector2(0, 0)
15:12/0/physics_layer_1/angular_velocity = 0.0
1:13/0 = 0
1:13/0/physics_layer_0/linear_velocity = Vector2(0, 0)
1:13/0/physics_layer_0/angular_velocity = 0.0
1:13/0/physics_layer_1/linear_velocity = Vector2(0, 0)
1:13/0/physics_layer_1/angular_velocity = 0.0
2:13/0 = 0
2:13/0/physics_layer_0/linear_velocity = Vector2(0, 0)
2:13/0/physics_layer_0/angular_velocity = 0.0
2:13/0/physics_layer_0/polygon_0/points = PackedVector2Array(-8, -8, 8, -8, 8, 8, -8, 8)
2:13/0/physics_layer_1/linear_velocity = Vector2(0, 0)
2:13/0/physics_layer_1/angular_velocity = 0.0
3:13/0 = 0
3:13/0/physics_layer_0/linear_velocity = Vector2(0, 0)
3:13/0/physics_layer_0/angular_velocity = 0.0
3:13/0/physics_layer_0/polygon_0/points = PackedVector2Array(-8, -8, 8, -8, 8, 8, -8, 8)
3:13/0/physics_layer_1/linear_velocity = Vector2(0, 0)
3:13/0/physics_layer_1/angular_velocity = 0.0
6:13/0 = 0
6:13/0/physics_layer_0/linear_velocity = Vector2(0, 0)
6:13/0/physics_layer_0/angular_velocity = 0.0
6:13/0/physics_layer_1/linear_velocity = Vector2(0, 0)
6:13/0/physics_layer_1/angular_velocity = 0.0
7:13/0 = 0
7:13/0/physics_layer_0/linear_velocity = Vector2(0, 0)
7:13/0/physics_layer_0/angular_velocity = 0.0
7:13/0/physics_layer_1/linear_velocity = Vector2(0, 0)
7:13/0/physics_layer_1/angular_velocity = 0.0
8:13/0 = 0
8:13/0/physics_layer_0/linear_velocity = Vector2(0, 0)
8:13/0/physics_layer_0/angular_velocity = 0.0
8:13/0/physics_layer_1/linear_velocity = Vector2(0, 0)
8:13/0/physics_layer_1/angular_velocity = 0.0
10:13/0 = 0
10:13/0/physics_layer_0/linear_velocity = Vector2(0, 0)
10:13/0/physics_layer_0/angular_velocity = 0.0
10:13/0/physics_layer_1/linear_velocity = Vector2(0, 0)
10:13/0/physics_layer_1/angular_velocity = 0.0
11:13/0 = 0
11:13/0/physics_layer_0/linear_velocity = Vector2(0, 0)
11:13/0/physics_layer_0/angular_velocity = 0.0
11:13/0/physics_layer_1/linear_velocity = Vector2(0, 0)
11:13/0/physics_layer_1/angular_velocity = 0.0
12:13/0 = 0
12:13/0/physics_layer_0/linear_velocity = Vector2(0, 0)
12:13/0/physics_layer_0/angular_velocity = 0.0
12:13/0/physics_layer_1/linear_velocity = Vector2(0, 0)
12:13/0/physics_layer_1/angular_velocity = 0.0
13:13/0 = 0
13:13/0/physics_layer_0/linear_velocity = Vector2(0, 0)
13:13/0/physics_layer_0/angular_velocity = 0.0
13:13/0/physics_layer_1/linear_velocity = Vector2(0, 0)
13:13/0/physics_layer_1/angular_velocity = 0.0
14:13/0 = 0
14:13/0/physics_layer_0/linear_velocity = Vector2(0, 0)
14:13/0/physics_layer_0/angular_velocity = 0.0
14:13/0/physics_layer_1/linear_velocity = Vector2(0, 0)
14:13/0/physics_layer_1/angular_velocity = 0.0
15:13/0 = 0
15:13/0/physics_layer_0/linear_velocity = Vector2(0, 0)
15:13/0/physics_layer_0/angular_velocity = 0.0
15:13/0/physics_layer_1/linear_velocity = Vector2(0, 0)
15:13/0/physics_layer_1/angular_velocity = 0.0
1:14/0 = 0
1:14/0/physics_layer_0/linear_velocity = Vector2(0, 0)
1:14/0/physics_layer_0/angular_velocity = 0.0
1:14/0/physics_layer_1/linear_velocity = Vector2(0, 0)
1:14/0/physics_layer_1/angular_velocity = 0.0
2:14/0 = 0
2:14/0/physics_layer_0/linear_velocity = Vector2(0, 0)
2:14/0/physics_layer_0/angular_velocity = 0.0
2:14/0/physics_layer_0/polygon_0/points = PackedVector2Array(-8, -8, 8, -8, 8, 8, -8, 8)
2:14/0/physics_layer_1/linear_velocity = Vector2(0, 0)
2:14/0/physics_layer_1/angular_velocity = 0.0
3:14/0 = 0
3:14/0/physics_layer_0/linear_velocity = Vector2(0, 0)
3:14/0/physics_layer_0/angular_velocity = 0.0
3:14/0/physics_layer_0/polygon_0/points = PackedVector2Array(-8, -8, 8, -8, 8, 8, -8, 8)
3:14/0/physics_layer_1/linear_velocity = Vector2(0, 0)
3:14/0/physics_layer_1/angular_velocity = 0.0
4:14/0 = 0
4:14/0/physics_layer_0/linear_velocity = Vector2(0, 0)
4:14/0/physics_layer_0/angular_velocity = 0.0
4:14/0/physics_layer_1/linear_velocity = Vector2(0, 0)
4:14/0/physics_layer_1/angular_velocity = 0.0
7:14/0 = 0
7:14/0/physics_layer_0/linear_velocity = Vector2(0, 0)
7:14/0/physics_layer_0/angular_velocity = 0.0
7:14/0/physics_layer_1/linear_velocity = Vector2(0, 0)
7:14/0/physics_layer_1/angular_velocity = 0.0
8:14/0 = 0
8:14/0/physics_layer_0/linear_velocity = Vector2(0, 0)
8:14/0/physics_layer_0/angular_velocity = 0.0
8:14/0/physics_layer_1/linear_velocity = Vector2(0, 0)
8:14/0/physics_layer_1/angular_velocity = 0.0
10:14/0 = 0
10:14/0/physics_layer_0/linear_velocity = Vector2(0, 0)
10:14/0/physics_layer_0/angular_velocity = 0.0
10:14/0/physics_layer_1/linear_velocity = Vector2(0, 0)
10:14/0/physics_layer_1/angular_velocity = 0.0
11:14/0 = 0
11:14/0/physics_layer_0/linear_velocity = Vector2(0, 0)
11:14/0/physics_layer_0/angular_velocity = 0.0
11:14/0/physics_layer_1/linear_velocity = Vector2(0, 0)
11:14/0/physics_layer_1/angular_velocity = 0.0
12:14/0 = 0
12:14/0/physics_layer_0/linear_velocity = Vector2(0, 0)
12:14/0/physics_layer_0/angular_velocity = 0.0
12:14/0/physics_layer_1/linear_velocity = Vector2(0, 0)
12:14/0/physics_layer_1/angular_velocity = 0.0
14:14/0 = 0
14:14/0/physics_layer_0/linear_velocity = Vector2(0, 0)
14:14/0/physics_layer_0/angular_velocity = 0.0
14:14/0/physics_layer_1/linear_velocity = Vector2(0, 0)
14:14/0/physics_layer_1/angular_velocity = 0.0

[sub_resource type="TileSet" id="TileSet_g2bd8"]
physics_layer_0/collision_layer = 1
physics_layer_0/collision_mask = 2
physics_layer_1/collision_layer = 0
physics_layer_1/collision_mask = 2
terrain_set_0/mode = 0
terrain_set_0/terrain_0/name = "Terrain 0"
terrain_set_0/terrain_0/color = Color(0.501961, 0.345098, 0.25098, 1)
sources/1 = SubResource("TileSetAtlasSource_a7kxq")
sources/0 = SubResource("TileSetAtlasSource_hltjg")
pattern_0 = SubResource("TileMapPattern_anict")
pattern_1 = SubResource("TileMapPattern_xpo75")

[sub_resource type="RectangleShape2D" id="RectangleShape2D_tf486"]
size = Vector2(1277.06, 1209.05)

[node name="Tile1" type="TileMap" groups=["tile_map"]]
texture_filter = 1
tile_set = SubResource("TileSet_g2bd8")
format = 2
layer_0/name = "Ground"
layer_0/tile_data = PackedInt32Array(0, 65536, 1, 65536, 65536, 1, 131072, 65536, 1, 196608, 65536, 1, 262144, 65536, 1, 327680, 65536, 1, 393216, 65536, 1, 458752, 65536, 1, 524288, 65536, 1, 589824, 65536, 1, 655360, 65536, 1, 720896, 65536, 1, 786432, 65536, 1, 851968, 65536, 1, 917504, 65536, 1, 983040, 327680, 0, 1048576, 65536, 1, 1114112, 65536, 1, 1179648, 65536, 1, 1245184, 65536, 1, 1310720, 327680, 1, 1376256, 327680, 0, 1441792, 65536, 1, 1507328, 65536, 1, 1572864, 65536, 1, 1638400, 65536, 1, 1703936, 65536, 1, 1769472, 65536, 1, 1835008, 65536, 1, 1900544, 65536, 1, 1966080, 65536, 1, 1, 65536, 1, 65537, 327680, 0, 131073, 65536, 1, 196609, 65536, 1, 262145, 327680, 0, 327681, 327680, 0, 393217, 65536, 1, 458753, 327680, 1, 524289, 65536, 1, 589825, 65536, 1, 655361, 65536, 1, 720897, 65536, 1, 786433, 65536, 1, 851969, 65536, 1, 917505, 65536, 1, 983041, 65536, 1, 1048577, 327680, 1, 1114113, 65536, 1, 1179649, 65536, 1, 1245185, 65536, 1, 1310721, 65536, 1, 1376257, 65536, 1, 1441793, 327680, 1, 1507329, 65536, 1, 1572865, 65536, 1, 1638401, 65536, 1, 1703937, 327680, 1, 1769473, 65536, 1, 1835009, 65536, 1, 1900545, 65536, 1, 1966081, 65536, 1, 2, 65536, 1, 65538, 65536, 1, 131074, 327680, 0, 196610, 327680, 1, 262146, 65536, 1, 327682, 65536, 1, 393218, 65536, 1, 458754, 65536, 1, 524290, 65536, 1, 589826, 65536, 1, 655362, 65536, 1, 720898, 65536, 1, 786434, 65536, 1, 851970, 65536, 1, 917506, 65536, 1, 983042, 65536, 1, 1048578, 65536, 1, 1114114, 65536, 1, 1179650, 65536, 1, 1245186, 65536, 1, 1310722, 65536, 1, 1376258, 65536, 1, 1441794, 65536, 1, 1507330, 65536, 1, 1572866, 65536, 1, 1638402, 65536, 1, 1703938, 65536, 1, 1769474, 65536, 1, 1835010, 65536, 1, 1900546, 327680, 1, 1966082, 65536, 1, 3, 65536, 1, 65539, 65536, 1, 131075, 65536, 1, 196611, 65536, 1, 262147, 327680, 1, 327683, 65536, 1, 393219, 65536, 1, 458755, 65536, 1, 524291, 327680, 0, 589827, 65536, 1, 655363, 65536, 1, 720899, 327680, 0, 786435, 327680, 0, 851971, 65536, 1, 917507, 327680, 0, 983043, 65536, 1, 1048579, 65536, 1, 1114115, 65536, 1, 1179651, 65536, 1, 1245187, 65536, 1, 1310723, 65536, 1, 1376259, 65536, 1, 1441795, 65536, 1, 1507331, 65536, 1, 1572867, 65536, 1, 1638403, 65536, 1, 1703939, 65536, 1, 1769475, 327680, 1, 1835011, 65536, 1, 1900547, 65536, 1, 1966083, 65536, 1, 4, 65536, 1, 65540, 327680, 0, 131076, 65536, 1, 196612, 65536, 1, 262148, 65536, 1, 327684, 65536, 1, 393220, 65536, 1, 458756, 65536, 1, 524292, 65536, 1, 589828, 65536, 1, 655364, 65536, 1, 720900, 65536, 1, 786436, 65536, 1, 851972, 327680, 0, 917508, 65536, 1, 983044, 65536, 1, 1048580, 327680, 0, 1114116, 65536, 1, 1179652, 65536, 1, 1245188, 65536, 1, 1310724, 65536, 1, 1376260, 65536, 1, 1441796, 327680, 0, 1507332, 65536, 1, 1572868, 65536, 1, 1638404, 65536, 1, 1703940, 327680, 1, 1769476, 65536, 1, 1835012, 65536, 1, 1900548, 65536, 1, 1966084, 65536, 1, 5, 65536, 1, 65541, 65536, 1, 131077, 65536, 1, 196613, 65536, 1, 262149, 65536, 1, 327685, 65536, 1, 393221, 65536, 1, 458757, 65536, 1, 524293, 327680, 1, 589829, 65536, 1, 655365, 65536, 1, 720901, 65536, 1, 786437, 327680, 1, 851973, 65536, 1, 917509, 327680, 0, 983045, 65536, 1, 1048581, 65536, 1, 1114117, 327680, 0, 1179653, 65536, 1, 1245189, 65536, 1, 1310725, 65536, 1, 1376261, 65536, 1, 1441797, 327680, 0, 1507333, 65536, 1, 1572869, 65536, 1, 1638405, 65536, 1, 1703941, 65536, 1, 1769477, 65536, 1, 1835013, 65536, 1, 1900549, 65536, 1, 1966085, 65536, 1, 6, 65536, 1, 65542, 65536, 1, 131078, 65536, 1, 196614, 65536, 1, 262150, 65536, 1, 327686, 65536, 1, 393222, 65536, 1, 458758, 327680, 2, 524294, 65536, 1, 589830, 65536, 1, 655366, 65536, 1, 720902, 65536, 1, 786438, 65536, 1, 851974, 65536, 1, 917510, 65536, 1, 983046, 65536, 1, 1048582, 327680, 0, 1114118, 65536, 1, 1179654, 65536, 1, 1245190, 65536, 1, 1310726, 65536, 1, 1376262, 327680, 0, 1441798, 327680, 0, 1507334, 327680, 1, 1572870, 65536, 1, 1638406, 65536, 1, 1703942, 65536, 1, 1769478, 65536, 1, 1835014, 65536, 1, 1900550, 65536, 1, 1966086, 65536, 1, 7, 65536, 1, 65543, 65536, 1, 131079, 65536, 1, 196615, 65536, 1, 262151, 65536, 1, 327687, 327680, 1, 393223, 327680, 0, 458759, 65536, 1, 524295, 65536, 1, 589831, 65536, 1, 655367, 65536, 1, 720903, 65536, 1, 786439, 65536, 1, 851975, 65536, 1, 917511, 65536, 1, 983047, 65536, 1, 1048583, 65536, 1, 1114119, 65536, 1, 1179655, 65536, 1, 1245191, 327680, 2, 1310727, 65536, 1, 1376263, 65536, 1, 1441799, 327680, 1, 1507335, 65536, 1, 1572871, 65536, 1, 1638407, 65536, 1, 1703943, 65536, 1, 1769479, 327680, 0, 1835015, 65536, 1, 1900551, 65536, 1, 1966087, 65536, 1, 8, 65536, 1, 65544, 327680, 1, 131080, 65536, 1, 196616, 65536, 1, 262152, 65536, 1, 327688, 327680, 1, 393224, 65536, 1, 458760, 65536, 1, 524296, 65536, 1, 589832, 327680, 1, 655368, 65536, 1, 720904, 65536, 1, 786440, 65536, 1, 851976, 65536, 1, 917512, 65536, 1, 983048, 65536, 1, 1048584, 65536, 1, 1114120, 65536, 1, 1179656, 65536, 1, 1245192, 65536, 1, 1310728, 65536, 1, 1376264, 65536, 1, 1441800, 65536, 1, 1507336, 65536, 1, 1572872, 65536, 1, 1638408, 65536, 1, 1703944, 327680, 1, 1769480, 65536, 1, 1835016, 65536, 1, 1900552, 65536, 1, 1966088, 65536, 1, 9, 65536, 1, 65545, 65536, 1, 131081, 327680, 1, 196617, 65536, 1, 262153, 65536, 1, 327689, 65536, 1, 393225, 65536, 1, 458761, 327680, 0, 524297, 65536, 1, 589833, 65536, 1, 655369, 65536, 1, 720905, 65536, 1, 786441, 65536, 1, 851977, 65536, 1, 917513, 65536, 1, 983049, 65536, 1, 1048585, 65536, 1, 1114121, 327680, 1, 1179657, 65536, 1, 1245193, 65536, 1, 1310729, 65536, 1, 1376265, 65536, 1, 1441801, 327680, 0, 1507337, 327680, 0, 1572873, 65536, 1, 1638409, 65536, 1, 1703945, 65536, 1, 1769481, 65536, 1, 1835017, 65536, 1, 1900553, 327680, 0, 1966089, 65536, 1, 10, 65536, 1, 65546, 65536, 1, 131082, 65536, 1, 196618, 65536, 1, 262154, 65536, 1, 327690, 65536, 1, 393226, 65536, 1, 458762, 65536, 1, 524298, 65536, 1, 589834, 65536, 1, 655370, 65536, 1, 720906, 65536, 1, 786442, 65536, 1, 851978, 65536, 1, 917514, 327680, 1, 983050, 65536, 1, 1048586, 65536, 1, 1114122, 65536, 1, 1179658, 65536, 1, 1245194, 65536, 1, 1310730, 65536, 1, 1376266, 65536, 1, 1441802, 65536, 1, 1507338, 327680, 0, 1572874, 65536, 1, 1638410, 65536, 1, 1703946, 327680, 0, 1769482, 65536, 1, 1835018, 65536, 1, 1900554, 65536, 1, 1966090, 65536, 1, 11, 65536, 1, 65547, 65536, 1, 131083, 65536, 1, 196619, 65536, 1, 262155, 65536, 1, 327691, 65536, 1, 393227, 65536, 1, 458763, 327680, 1, 524299, 65536, 1, 589835, 65536, 1, 655371, 65536, 1, 720907, 65536, 1, 786443, 65536, 1, 851979, 65536, 1, 917515, 65536, 1, 983051, 65536, 1, 1048587, 65536, 1, 1114123, 65536, 1, 1179659, 65536, 1, 1245195, 65536, 1, 1310731, 65536, 1, 1376267, 65536, 1, 1441803, 327680, 0, 1507339, 65536, 1, 1572875, 327680, 0, 1638411, 65536, 1, 1703947, 65536, 1, 1769483, 65536, 1, 1835019, 65536, 1, 1900555, 65536, 1, 1966091, 65536, 1, 12, 65536, 1, 65548, 65536, 1, 131084, 65536, 1, 196620, 65536, 1, 262156, 65536, 1, 327692, 65536, 1, 393228, 65536, 1, 458764, 65536, 1, 524300, 65536, 1, 589836, 65536, 1, 655372, 327680, 0, 720908, 65536, 1, 786444, 327680, 0, 851980, 65536, 1, 917516, 65536, 1, 983052, 65536, 1, 1048588, 327680, 0, 1114124, 65536, 1, 1179660, 65536, 1, 1245196, 65536, 1, 1310732, 65536, 1, 1376268, 65536, 1, 1441804, 65536, 1, 1507340, 65536, 1, 1572876, 327680, 0, 1638412, 65536, 1, 1703948, 65536, 1, 1769484, 65536, 1, 1835020, 65536, 1, 1900556, 65536, 1, 1966092, 65536, 1, 13, 65536, 1, 65549, 327680, 1, 131085, 65536, 1, 196621, 327680, 0, 262157, 65536, 1, 327693, 65536, 1, 393229, 65536, 1, 458765, 65536, 1, 524301, 65536, 1, 589837, 65536, 1, 655373, 65536, 1, 720909, 65536, 1, 786445, 65536, 1, 851981, 65536, 1, 917517, 65536, 1, 983053, 65536, 1, 1048589, 65536, 1, 1114125, 65536, 1, 1179661, 65536, 1, 1245197, 65536, 1, 1310733, 327680, 0, 1376269, 65536, 1, 1441805, 327680, 1, 1507341, 65536, 1, 1572877, 65536, 1, 1638413, 65536, 1, 1703949, 65536, 1, 1769485, 65536, 1, 1835021, 65536, 1, 1900557, 327680, 0, 1966093, 65536, 1, 14, 65536, 1, 65550, 65536, 1, 131086, 65536, 1, 196622, 65536, 1, 262158, 65536, 1, 327694, 65536, 1, 393230, 65536, 1, 458766, 65536, 1, 524302, 327680, 1, 589838, 65536, 1, 655374, 65536, 1, 720910, 65536, 1, 786446, 65536, 1, 851982, 65536, 1, 917518, 65536, 1, 983054, 65536, 1, 1048590, 327680, 1, 1114126, 65536, 1, 1179662, 65536, 1, 1245198, 65536, 1, 1310734, 65536, 1, 1376270, 65536, 1, 1441806, 65536, 1, 1507342, 327680, 1, 1572878, 65536, 1, 1638414, 65536, 1, 1703950, 327680, 1, 1769486, 327680, 0, 1835022, 65536, 1, 1900558, 327680, 0, 1966094, 65536, 1, 15, 65536, 1, 65551, 65536, 1, 131087, 65536, 1, 196623, 65536, 1, 262159, 65536, 1, 327695, 65536, 1, 393231, 65536, 1, 458767, 65536, 1, 524303, 65536, 1, 589839, 65536, 1, 655375, 65536, 1, 720911, 327680, 2, 786447, 65536, 1, 851983, 65536, 1, 917519, 65536, 1, 983055, 327680, 0, 1048591, 327680, 1, 1114127, 327680, 0, 1638415, 65536, 1, 1703951, 65536, 1, 1769487, 65536, 1, 1835023, 327680, 1, 1900559, 65536, 1, 1966095, 65536, 1, 16, 65536, 1, 65552, 65536, 1, 131088, 65536, 1, 196624, 65536, 1, 262160, 65536, 1, 327696, 65536, 1, 393232, 327680, 1, 458768, 65536, 1, 524304, 65536, 1, 589840, 65536, 1, 655376, 65536, 1, 720912, 65536, 1, 786448, 65536, 1, 851984, 65536, 1, 917520, 65536, 1, 983056, 65536, 1, 1048592, 65536, 1, 1114128, 65536, 1, 1638416, 65536, 1, 1703952, 65536, 1, 1769488, 65536, 1, 1835024, 65536, 1, 1900560, 65536, 1, 1966096, 65536, 1, 17, 65536, 1, 65553, 65536, 1, 131089, 327680, 0, 196625, 327680, 0, 262161, 65536, 1, 327697, 65536, 1, 393233, 65536, 1, 458769, 65536, 1, 524305, 327680, 0, 589841, 65536, 1, 655377, 65536, 1, 720913, 65536, 1, 786449, 65536, 1, 851985, 65536, 1, 917521, 65536, 1, 983057, 65536, 1, 1048593, 65536, 1, 1114129, 65536, 1, 1638417, 65536, 1, 1703953, 65536, 1, 1769489, 65536, 1, 1835025, 65536, 1, 1900561, 65536, 1, 1966097, 65536, 1, 18, 65536, 1, 65554, 327680, 0, 131090, 65536, 1, 196626, 65536, 1, 262162, 65536, 1, 327698, 65536, 1, 393234, 327680, 1, 458770, 65536, 1, 524306, 65536, 1, 589842, 65536, 1, 655378, 65536, 1, 720914, 65536, 1, 786450, 65536, 1, 851986, 65536, 1, 917522, 65536, 1, 983058, 65536, 1, 1048594, 65536, 1, 1114130, 65536, 1, 1638418, 327680, 0, 1703954, 65536, 1, 1769490, 65536, 1, 1835026, 65536, 1, 1900562, 65536, 1, 1966098, 65536, 1, 19, 65536, 1, 65555, 65536, 1, 131091, 65536, 1, 196627, 65536, 1, 262163, 327680, 0, 327699, 327680, 1, 393235, 65536, 1, 458771, 65536, 1, 524307, 65536, 1, 589843, 65536, 1, 655379, 65536, 1, 720915, 327680, 1, 786451, 65536, 1, 851987, 65536, 1, 917523, 65536, 1, 983059, 65536, 1, 1048595, 327680, 1, 1114131, 65536, 1, 1638419, 327680, 0, 1703955, 65536, 1, 1769491, 65536, 1, 1835027, 65536, 1, 1900563, 65536, 1, 1966099, 65536, 1, 20, 65536, 1, 65556, 65536, 1, 131092, 65536, 1, 196628, 65536, 1, 262164, 65536, 1, 327700, 327680, 0, 393236, 65536, 1, 458772, 65536, 1, 524308, 65536, 1, 589844, 65536, 1, 655380, 65536, 1, 720916, 65536, 1, 786452, 65536, 1, 851988, 65536, 1, 917524, 65536, 1, 983060, 65536, 1, 1048596, 65536, 1, 1114132, 65536, 1, 1638420, 65536, 1, 1703956, 65536, 1, 1769492, 65536, 1, 1835028, 65536, 1, 1900564, 65536, 1, 1966100, 65536, 1, 21, 65536, 1, 65557, 65536, 1, 131093, 65536, 1, 196629, 65536, 1, 262165, 327680, 0, 327701, 65536, 1, 393237, 65536, 1, 458773, 65536, 1, 524309, 65536, 1, 589845, 65536, 1, 655381, 65536, 1, 720917, 65536, 1, 786453, 65536, 1, 851989, 65536, 1, 917525, 65536, 1, 983061, 65536, 1, 1048597, 65536, 1, 1114133, 65536, 1, 1638421, 65536, 1, 1703957, 65536, 1, 1769493, 327680, 1, 1835029, 65536, 1, 1900565, 65536, 1, 1966101, 65536, 1, 22, 65536, 1, 65558, 327680, 0, 131094, 65536, 1, 196630, 65536, 1, 262166, 65536, 1, 327702, 65536, 1, 393238, 65536, 1, 458774, 65536, 1, 524310, 65536, 1, 589846, 65536, 1, 655382, 327680, 1, 720918, 65536, 1, 786454, 65536, 1, 851990, 65536, 1, 917526, 65536, 1, 983062, 65536, 1, 1048598, 65536, 1, 1114134, 65536, 1, 1179670, 65536, 1, 1245206, 65536, 1, 1310742, 65536, 1, 1376278, 65536, 1, 1441814, 65536, 1, 1507350, 65536, 1, 1572886, 65536, 1, 1638422, 65536, 1, 1703958, 65536, 1, 1769494, 65536, 1, 1835030, 65536, 1, 1900566, 65536, 1, 1966102, 65536, 1, 23, 65536, 1, 65559, 65536, 1, 131095, 65536, 1, 196631, 65536, 1, 262167, 65536, 1, 327703, 65536, 1, 393239, 65536, 1, 458775, 65536, 1, 524311, 65536, 1, 589847, 65536, 1, 655383, 65536, 1, 720919, 65536, 1, 786455, 327680, 0, 851991, 65536, 1, 917527, 65536, 1, 983063, 65536, 1, 1048599, 65536, 1, 1114135, 327680, 1, 1179671, 327680, 0, 1245207, 65536, 1, 1310743, 65536, 1, 1376279, 65536, 1, 1441815, 65536, 1, 1507351, 65536, 1, 1572887, 65536, 1, 1638423, 65536, 1, 1703959, 65536, 1, 1769495, 65536, 1, 1835031, 65536, 1, 1900567, 65536, 1, 1966103, 65536, 1, 24, 65536, 1, 65560, 65536, 1, 131096, 65536, 1, 196632, 65536, 1, 262168, 65536, 1, 327704, 65536, 1, 393240, 327680, 0, 458776, 65536, 1, 524312, 65536, 1, 589848, 65536, 1, 655384, 65536, 1, 720920, 327680, 0, 786456, 65536, 1, 851992, 65536, 1, 917528, 65536, 1, 983064, 65536, 1, 1048600, 65536, 1, 1114136, 327680, 0, 1179672, 65536, 1, 1245208, 327680, 0, 1310744, 65536, 1, 1376280, 65536, 1, 1441816, 65536, 1, 1507352, 65536, 1, 1572888, 65536, 1, 1638424, 65536, 1, 1703960, 65536, 1, 1769496, 65536, 1, 1835032, 65536, 1, 1900568, 65536, 1, 1966104, 65536, 1, 25, 65536, 1, 65561, 65536, 1, 131097, 65536, 1, 196633, 65536, 1, 262169, 65536, 1, 327705, 65536, 1, 393241, 65536, 1, 458777, 65536, 1, 524313, 65536, 1, 589849, 65536, 1, 655385, 65536, 1, 720921, 327680, 0, 786457, 65536, 1, 851993, 65536, 1, 917529, 65536, 1, 983065, 65536, 1, 1048601, 65536, 1, 1114137, 65536, 1, 1179673, 65536, 1, 1245209, 65536, 1, 1310745, 65536, 1, 1376281, 65536, 1, 1441817, 65536, 1, 1507353, 327680, 0, 1572889, 65536, 1, 1638425, 65536, 1, 1703961, 65536, 1, 1769497, 65536, 1, 1835033, 65536, 1, 1900569, 65536, 1, 1966105, 65536, 1, 26, 65536, 1, 65562, 65536, 1, 131098, 65536, 1, 196634, 65536, 1, 262170, 65536, 1, 327706, 65536, 1, 393242, 65536, 1, 458778, 65536, 1, 524314, 65536, 1, 589850, 65536, 1, 655386, 65536, 1, 720922, 65536, 1, 786458, 65536, 1, 851994, 327680, 0, 917530, 65536, 1, 983066, 65536, 1, 1048602, 65536, 1, 1114138, 65536, 1, 1179674, 65536, 1, 1245210, 65536, 1, 1310746, 65536, 1, 1376282, 65536, 1, 1441818, 65536, 1, 1507354, 65536, 1, 1572890, 65536, 1, 1638426, 65536, 1, 1703962, 65536, 1, 1769498, 65536, 1, 1835034, 65536, 1, 1900570, 65536, 1, 1966106, 65536, 1, 27, 65536, 1, 65563, 65536, 1, 131099, 65536, 1, 196635, 65536, 1, 262171, 65536, 1, 327707, 65536, 1, 393243, 65536, 1, 458779, 65536, 1, 524315, 65536, 1, 589851, 65536, 1, 655387, 65536, 1, 720923, 65536, 1, 786459, 65536, 1, 851995, 65536, 1, 917531, 65536, 1, 983067, 65536, 1, 1048603, 65536, 1, 1114139, 65536, 1, 1179675, 65536, 1, 1245211, 65536, 1, 1310747, 65536, 1, 1376283, 65536, 1, 1441819, 65536, 1, 1507355, 65536, 1, 1572891, 65536, 1, 1638427, 65536, 1, 1703963, 65536, 1, 1769499, 65536, 1, 1835035, 65536, 1, 1900571, 65536, 1, 1966107, 65536, 1, 28, 65536, 1, 65564, 65536, 1, 131100, 65536, 1, 196636, 65536, 1, 262172, 65536, 1, 327708, 65536, 1, 393244, 65536, 1, 458780, 65536, 1, 524316, 65536, 1, 589852, 65536, 1, 655388, 65536, 1, 720924, 65536, 1, 786460, 65536, 1, 851996, 65536, 1, 917532, 65536, 1, 983068, 65536, 1, 1048604, 65536, 1, 1114140, 65536, 1, 1179676, 65536, 1, 1245212, 327680, 0, 1310748, 65536, 1, 1376284, 65536, 1, 1441820, 65536, 1, 1507356, 65536, 1, 1572892, 65536, 1, 1638428, 65536, 1, 1703964, 65536, 1, 1769500, 65536, 1, 1835036, 65536, 1, 1900572, 65536, 1, 1966108, 65536, 1, 29, 65536, 1, 65565, 65536, 1, 131101, 327680, 0, 196637, 65536, 1, 262173, 65536, 1, 327709, 65536, 1, 393245, 327680, 0, 458781, 65536, 1, 524317, 65536, 1, 589853, 65536, 1, 655389, 65536, 1, 720925, 65536, 1, 786461, 65536, 1, 851997, 65536, 1, 917533, 65536, 1, 983069, 65536, 1, 1048605, 65536, 1, 1114141, 65536, 1, 1179677, 65536, 1, 1245213, 65536, 1, 1310749, 327680, 1, 1376285, 65536, 1, 1441821, 65536, 1, 1507357, 65536, 1, 1572893, 327680, 0, 1638429, 327680, 1, 1703965, 65536, 1, 1769501, 327680, 0, 1835037, 65536, 1, 1900573, 65536, 1, 1966109, 65536, 1, 30, 65536, 1, 65566, 65536, 1, 131102, 65536, 1, 196638, 65536, 1, 262174, 327680, 1, 327710, 65536, 1, 393246, 65536, 1, 458782, 327680, 0, 524318, 65536, 1, 589854, 65536, 1, 655390, 65536, 1, 720926, 65536, 1, 786462, 65536, 1, 851998, 65536, 1, 917534, 65536, 1, 983070, 65536, 1, 1048606, 65536, 1, 1114142, 65536, 1, 1179678, 65536, 1, 1245214, 65536, 1, 1310750, 327680, 1, 1376286, 65536, 1, 1441822, 65536, 1, 1507358, 65536, 1, 1572894, 65536, 1, 1638430, 65536, 1, 1703966, 65536, 1, 1769502, 65536, 1, 1835038, 327680, 1, 1900574, 327680, 1, 1966110, 65536, 1, 1179663, 65536, 1, 1245199, 65536, 1, 1310735, 65536, 1, 1376271, 65536, 1, 1441807, 65536, 1, 1507343, 65536, 1, 1572879, 65536, 1, 1179664, 65536, 1, 1245200, 65536, 1, 1310736, 65536, 1, 1376272, 65536, 1, 1441808, 65536, 1, 1507344, 65536, 1, 1572880, 65536, 1, 1179665, 65536, 1, 1245201, 65536, 1, 1310737, 65536, 1, 1376273, 65536, 1, 1441809, 65536, 1, 1507345, 65536, 1, 1572881, 65536, 1, 1179666, 65536, 1, 1245202, 65536, 1, 1310738, 65536, 1, 1376274, 327680, 2, 1441810, 65536, 1, 1507346, 65536, 1, 1572882, 65536, 1, 1179667, 65536, 1, 1245203, 65536, 1, 1310739, 65536, 1, 1376275, 65536, 1, 1441811, 65536, 1, 1507347, 65536, 1, 1572883, 65536, 1, 1179668, 65536, 1, 1245204, 327680, 1, 1310740, 65536, 1, 1376276, 65536, 1, 1441812, 65536, 1, 1507348, 327680, 0, 1572884, 65536, 1, 1179669, 65536, 1, 1245205, 65536, 1, 1310741, 327680, 1, 1376277, 65536, 1, 1441813, 65536, 1, 1507349, 327680, 1, 1572885, 65536, 1)
layer_1/name = "props"
layer_1/enabled = true
layer_1/modulate = Color(1, 1, 1, 1)
layer_1/y_sort_enabled = false
layer_1/y_sort_origin = 0
layer_1/z_index = 0
layer_1/tile_data = PackedInt32Array()
layer_2/name = "props2"
layer_2/enabled = true
layer_2/modulate = Color(1, 1, 1, 1)
layer_2/y_sort_enabled = false
layer_2/y_sort_origin = 0
layer_2/z_index = 0
layer_2/tile_data = PackedInt32Array(1179658, 655361, 6, 1245194, 655361, 7, 196619, 917505, 6, 262155, 917505, 7, 1179659, 720897, 6, 1245195, 720897, 7, 196620, 983041, 6, 262156, 983041, 7, 393230, 655361, 6, 458766, 655361, 7, 393231, 720897, 6, 458767, 720897, 7, 917530, 917505, 6, 983066, 917505, 7, 917531, 983041, 6, 983067, 983041, 7)
layer_3/name = "LimitborderTileMap"
layer_3/enabled = true
layer_3/modulate = Color(1, 1, 1, 1)
layer_3/y_sort_enabled = false
layer_3/y_sort_origin = 0
layer_3/z_index = 0
layer_3/tile_data = PackedInt32Array()
script = ExtResource("3_tohrw")

[node name="Area2D" type="Area2D" parent="."]
visible = false
collision_layer = 0
collision_mask = 2

[node name="CollisionShape2D" type="CollisionShape2D" parent="Area2D"]
visible = false
position = Vector2(282, 257)
shape = SubResource("RectangleShape2D_tf486")

[node name="TileMap" parent="." instance=ExtResource("4_qbyxt")]
position = Vector2(39, 136)

[node name="TileMap2" parent="." instance=ExtResource("4_qbyxt")]
position = Vector2(219, 165)

[node name="TileMap3" parent="." instance=ExtResource("4_qbyxt")]
position = Vector2(79, 354)

[node name="TileMap4" parent="." instance=ExtResource("4_qbyxt")]
position = Vector2(239, 320)

[node name="TileMap5" parent="." instance=ExtResource("4_qbyxt")]
position = Vector2(127, 221)

[node name="TileMap6" parent="." instance=ExtResource("4_qbyxt")]
position = Vector2(347, 166)

[node name="TileMap7" parent="." instance=ExtResource("4_qbyxt")]
position = Vector2(370, 314)

[node name="TileMap8" parent="." instance=ExtResource("4_qbyxt")]
position = Vector2(175, 435)

[node name="TileMap9" parent="." instance=ExtResource("4_qbyxt")]
position = Vector2(299, 446)

[connection signal="body_entered" from="Area2D" to="." method="_on_area_2d_body_entered"]
[connection signal="body_exited" from="Area2D" to="." method="_on_area_2d_body_exited"]
