[gd_scene load_steps=2 format=3 uid="uid://c0iwrwm7mxm1i"]

[ext_resource type="Script" path="res://scripts/Hurtbox.gd" id="1_skp5d"]

[node name="Hurtbox" type="Area2D"]
collision_layer = 0
collision_mask = 0
script = ExtResource("1_skp5d")

[node name="CollisionShape2D" type="CollisionShape2D" parent="."]

[node name="DisableTimer" type="Timer" parent="."]
wait_time = 0.5
one_shot = true

[connection signal="area_entered" from="." to="." method="_on_area_entered"]
[connection signal="timeout" from="DisableTimer" to="." method="_on_disable_timer_timeout"]
