[gd_scene load_steps=5 format=3 uid="uid://do6msditn7e7w"]

[ext_resource type="Texture2D" uid="uid://tuubfpgbjvbn" path="res://assets/Ratfolk_Mage_Sprite_Sheet.png" id="1_tsijr"]

[sub_resource type="Animation" id="Animation_3xupx"]
length = 0.001
tracks/0/type = "value"
tracks/0/imported = false
tracks/0/enabled = true
tracks/0/path = NodePath("Sprite2D:frame")
tracks/0/interp = 1
tracks/0/loop_wrap = true
tracks/0/keys = {
"times": PackedFloat32Array(0),
"transitions": PackedFloat32Array(1),
"update": 0,
"values": [0]
}

[sub_resource type="Animation" id="Animation_m4e2d"]
resource_name = "idle"
length = 1.4
loop_mode = 1
tracks/0/type = "value"
tracks/0/imported = false
tracks/0/enabled = true
tracks/0/path = NodePath("Sprite2D:frame")
tracks/0/interp = 1
tracks/0/loop_wrap = true
tracks/0/keys = {
"times": PackedFloat32Array(0, 0.2, 0.4, 0.6, 0.8, 1, 1.2, 1.4),
"transitions": PackedFloat32Array(1, 1, 1, 1, 1, 1, 1, 1),
"update": 0,
"values": [0, 1, 2, 3, 4, 5, 6, 7]
}

[sub_resource type="AnimationLibrary" id="AnimationLibrary_r11l0"]
_data = {
"RESET": SubResource("Animation_3xupx"),
"idle": SubResource("Animation_m4e2d")
}

[node name="Node2D" type="Node2D"]

[node name="Sprite2D" type="Sprite2D" parent="."]
texture_filter = 1
texture = ExtResource("1_tsijr")
hframes = 8
vframes = 5
frame = 3

[node name="AnimationPlayer" type="AnimationPlayer" parent="."]
autoplay = "idle"
reset_on_save = false
libraries = {
"": SubResource("AnimationLibrary_r11l0")
}
